"message","id"
"Có vé rồi đó ạ, đến ngày 11/09/2017, bạn có mặt tại sân bay 2 tiếng so với giờ khởi hành, cung cấp MÃ ĐẶT CHỖ cho nhân viên làm thủ tục checkin và kèm theo giấy tờ tùy thân hợp lệ nhé.","598e5768e6cfc03539b0e010"
"Chào bạn, vì bạn inbox ngoài giờ làm việc nên ad không thể phản hồi hỗ trợ bạn ngay được, mong bạn thông cảm nhé","598e57f7e6cfc03539b0e012"
"Ok add","598e580387c2f78f175c6260"
"Add check cho mình chưa","598e580ae6cfc03539b0e013"
"trong hôm nay phải thanh toán cho atadi.vậy cho em hỏi em còn có thể thanh toán bằng hình thức nào khác ko ạ","598e583687c2f78f175c6262"
"em cảm ơn ạ","598e5839e6cfc03539b0e014"
"vậy ad chúc mừng bạn đã mua vé thành công, cảm ơn bạn đã sử dụng dich vụ của ATADI, nếu cần hỗ trợ gì khác có thể inbox lại ad ạ, chúc bạn 1 ngày vui vẻ","598e583b87c2f78f175c6263"
"Chao em. em xem lich su giao dich tai khoan cua chi sao gio het tien roi, chi chuyen tu tk ca nhan cua chi vao TK thanh toan cua Atadi 1.300.000d, ma gio chi moi dat ve thanh cong luot di tu HCM den HN ngay 11/9 la 639.000 d ma gio chi dat tiep  may bao TK chi con 22.000 d la sao vay em xem giup dum chi","598e58c1e6cfc03539b0e01a"
"Chào bạn, bạn đã đặt vé và nhận được xác nhận giữ chỗ thành công từ ATADI gửi về chưa ạ ?","598e58ce87c2f78f175c626a"
"vâng em nhận dc xác nhận giữ chỗ rồi ạ","598e58e4e6cfc03539b0e01e"
"chào bạn , MHS 240592Z756 bạn có nhận được vé điện tử gửi về email và sms sđt đăng ký khi đặt vé chưa ạ ?","598e58fee6cfc03539b0e022"
"trước 4h sáng cn em phải thanh toán rồi mà nơi em sống ko có nhận thu hộ .còn ngân hàng thì nghỉ ạ.chỉ có viettel ngân hàng quân đội là làm cả chủ nhật","598e5927e6cfc03539b0e026"
"Chào bạn, bạn đã đặt vé và nhận được xác nhận giữ chỗ thành công từ ATADI gửi về chưa ạ ?","598e593a87c2f78f175c626f"
"Chào bạn, bạn đã đặt vé và nhận được xác nhận giữ chỗ thành công từ ATADI gửi về chưa ạ ?","598e5947e6cfc03539b0e028"
"nhưng em có gửi khác ngân hàng thì hệ thống vẫn sẽ treo ạ","598e5948e6cfc03539b0e029"
"Chào bạn, bạn đã thanh toán và nhận được vé điện tử từ ATADI gửi về chưa ạ ?","598e596787c2f78f175c6275"
"Rồi, bây giờ muốn đổi chuyến bay thì làm ntn","598e599087c2f78f175c6277"
"alo","598e599fe6cfc03539b0e02f"
"bạn cung cấp giúp ad mã tài khoản thanh toán, tên + số điện thoại+ địa chỉ mail đăng kí đặt vé nhé","598e59ac87c2f78f175c627a"
"để bên ad hỗ trợ bạn ra soát nhé","598e59bc87c2f78f175c627b"
"Vé vna, có phải ra phòng vé của hãng ko bạn","598e59e087c2f78f175c627c"
"vì tra soát chuyển khoản là 1 quy trình phức tạp, do đó ATADI có riêng 1 bộ phận chuyên trách hỗ trợ bạn trong trường hợp này qua email, bạn vui lòng cho ad xin họ tên, số điện thoại, email khi đăng ký đặt vé ạ","598e59e4e6cfc03539b0e031"
"Trịnh thị phương","598e59fb87c2f78f175c627e"
"Sdt: 01682173646","598e5a06e6cfc03539b0e033"
"Trangkum154@gmail.com","598e5a1b87c2f78f175c6280"
"Vì mình sợ k check đc","598e5a4287c2f78f175c6282"
"Lỡ vé của mình ấy","598e5a4987c2f78f175c6283"
"ten nguoi lien he hay ten hanhkhach em?","598e5a7387c2f78f175c6285"
"bạn ra FPT, Viễn Thông A thanh toán được bạn nhé","598e5a9c87c2f78f175c6287"
"em ra rồi ạ nhưng chỗ em họ nói là chỉ áp dụng với miền nam","598e5ab1e6cfc03539b0e03b"
"ngoài này ko nhận thu hộ ạ","598e5ac0e6cfc03539b0e03c"
"Bạn nói với nhân viên bạn ""thanh toán hóa đơn thương mại điện tử""","598e5ac187c2f78f175c6289"
"không phải thanh toán vé máy bay ạ","598e5acee6cfc03539b0e03e"
"ah vâng ạ","598e5ad7e6cfc03539b0e03f"
"bạn đọc giúp nhân viên mã thanh toán tiền mặt 888xxxxx","598e5aeb87c2f78f175c6290"
"1 lần giao dịch phí là 9,000đ nhé","598e5afb87c2f78f175c6291"
"dạ vâng để em ra hỏi lại họ","598e5b0887c2f78f175c6292"
"e cảm ơn ạ","598e5b0be6cfc03539b0e041"
"dạ, bạn thử lại giúp ad ạ. Cần hỗ trợ liên hệ ad nhé","598e5b3587c2f78f175c6293"
"vâng ạ em cảm ơn ad","598e5b3ee6cfc03539b0e043"
"ad sẽ chuyển những thông tin bạn cung cấp sang bộ phận huyên trách hỗ trợ bạn sớm nhất có thể ạ, bạn vui lòng check mail phản hồi nhé.","598e5b44e6cfc03539b0e044"
"tên người liên hệ thôi ạ","598e5b67e6cfc03539b0e046"
"Ok add","598e5b9b87c2f78f175c6296"
"Chào bạn, bạn đã đặt vé và nhận được xác nhận giữ chỗ thành công từ ATADI gửi về chưa ạ ?","598e5bc787c2f78f175c6299"
"Chào bạn, bạn đã đặt vé và nhận được xác nhận giữ chỗ thành công từ ATADI gửi về chưa ạ ?","598e5bd3e6cfc03539b0e04d"
"Ban con hinh thuc ck nao khac ko ah?","598e5c5ae6cfc03539b0e050"
"Tai muc ck yeu cau m nhập mã thẻ mà thẻ của mình chưa lay ve dc nen ko co ma thẻ ah.","598e5c7f87c2f78f175c62a4"
"Vì đổi vé đó là quy trình phức tạp nên ATADI có riêng 1 bộ phận chuyên trách để hỗ trợ bạn tốt hơn, bạn có thể cho ad xin:
- Mã đặt chỗ:
- Ngày giờ bay cũ:
- Ngày giờ bay mới:
- email, họ tên, sđt để ad chuyển thông tin cho bộ phận tra cứu, sẽ có nhân viên tiếp nhận và trao đổi với bạn qua email luôn nhé","598e5d85e6cfc03539b0e060"
"Chào bạn, bạn đã đặt vé và nhận được xác nhận giữ chỗ thành công từ ATADI gửi về chưa ạ ?","598e5d98e6cfc03539b0e061"
"Chào bạn, bạn đã đặt vé và nhận được xác nhận giữ chỗ thành công từ ATADI gửi về chưa ạ ?","598e5da5e6cfc03539b0e062"
"Mình chưa đặt ạ","598e5dd7e6cfc03539b0e065"
"Vì thấy 15/8 vn airlines mới có vé rẻ","598e5df7e6cfc03539b0e066"
"Chào bạn, bạn đã đặt vé và nhận được xác nhận giữ chỗ thành công từ ATADI gửi về chưa ạ ?","598e5eeeb2342b904b36bff5"
"Chào bạn, bạn đã đặt vé và nhận được xác nhận giữ chỗ thành công từ ATADI gửi về chưa ạ ?","598e5f01e6cfc03539b0e070"
"bạn cho mình hỏi","598e5f21b2342b904b36bff9"
"mình mua vé rồi sáng mai bay từ pusan lúc 6h05","598e5f36b2342b904b36bffa"
"giờ muốn mua thêm hành lý thì sao","598e5f42b2342b904b36bffb"
"có kịp mua online ko","598e5f49e6cfc03539b0e071"
"mình mua vé của vietjest","598e5f75b2342b904b36bffc"
"Mã đặt chỗ ORIPTT.  
VNA sgn-han vn 248 15h00 18/8/2017.
Đổi sang 15h00 1/9/2017. DOAN TUAN THANH 0907910909. Mail: thanhdoan773@gmail.com","598e5fa9b2342b904b36c000"
"Chào bạn, bạn đã thanh toán và nhận được vé điện tử từ ATADI gửi về chưa ạ ?","598e5fc3b2342b904b36c004"
"Chào bạn, bạn đã đặt vé và nhận được xác nhận giữ chỗ thành công từ ATADI gửi về chưa ạ ?","598e5fd5e6cfc03539b0e07b"
"Chào bạn, bạn đã đặt vé và nhận được xác nhận giữ chỗ thành công từ ATADI gửi về chưa ạ ?","598e5fefe6cfc03539b0e07d"
"Chào bạn, bạn đã đặt vé và nhận được xác nhận giữ chỗ thành công từ ATADI gửi về chưa ạ ?","598e6005e6cfc03539b0e081"
"M nhận đc rồi b ơi","598e601eb2342b904b36c007"
"Chào bạn, bạn đã đặt vé và nhận được xác nhận giữ chỗ thành công từ ATADI gửi về chưa ạ ?","598e6035b2342b904b36c00c"
"Chào bạn, bạn đã đặt vé và nhận được xác nhận giữ chỗ thành công từ ATADI gửi về chưa ạ ?","598e6042b2342b904b36c00d"
"Chào bạn, bạn đã đặt vé và nhận được xác nhận giữ chỗ thành công từ ATADI gửi về chưa ạ ?","598e6078e6cfc03539b0e085"
"Mình thanh toán rồi","598e60f8e6cfc03539b0e08d"
"Hôm qua e đã nhận được vé điện tử rồi ạ","598e615db2342b904b36c022"
"Nhưng trong tài khoản của e mới nhận được tiền 1 lần chuyển khoản vào thôi,","598e617bb2342b904b36c025"
"Vì hôm qua mình có chuyển khoản 2 lần mà","598e618a155182c95241ef0a"
"Ok het r b","598e61c6155182c95241ef0d"
"Hiện bên ad có hỗ trợ ngân hàng Vietcombank, Techcombank,  Agribank, Saccombank ạ","598e6304155182c95241ef1a"
"Bạn ơi hỗ trợ mình với","598e630db2342b904b36c038"
"vi m cần mua thêm vé cho con","598e6324b2342b904b36c03a"
"Ngoài ra bạn cũng có thể thanh toán bằng tiền mặt tại cửa hàng tiẹn lợi, FPT, Viễn Thông A nữa nhé","598e6335b2342b904b36c03c"
"nên trên hiển thị  llaf 1 người lớn và 1 bé","598e6349b2342b904b36c03e"
"Ad đã chuyển thông tin của bạn sang bộ phận chuyên trách, bạn vui lòng check và phản hồi mail để được hỗ trợ kịp thời bạn nhé ^^","598e635ab2342b904b36c03f"
"Uki, Tks ad","598e635fb2342b904b36c040"
"Rất vui được hỗ trợ bạn, cám ơn bạn đã quan tâm và sử dụng dịch vụ của atadi.vn nhé. Nếu cần hỗ trợ gì thêm bạn cứ inbox cho ad nhé. Chúc bạn cuối tuần vui vẻ ^^","598e6419b2342b904b36c048"
"Chào bạn, bạn đã đặt vé và nhận được xác nhận giữ chỗ thành công từ ATADI gửi về chưa ạ ?","598e642cb2342b904b36c04a"
"đó là chương trình khuyến mại ""Mùa Thu Vàng"" 2017 bạn nhé. Vé được bán từ ngày 15/8/2017 đến 31/8/2017 tại các phòng vé, đại lý của Vietnam Airlines trên toàn quốc và trang web chính thức theo đường link: https://www.vietnamairlines.com/vi/sites/Mua-thu-vang-2017. Thời gian khởi hành cho các hành trình kéo dài từ ngày 15/8/2017 đến hết ngày 31/3/2018. bạn có thể tham khảo tại link ạ","598e6617b2342b904b36c060"
"Chào bạn, bạn đã thanh toán và nhận được vé điện tử từ ATADI gửi về vậy bạn mua vé hãng anof vậy ạ ?","598e6641b2342b904b36c061"
"15/06/2017 qua rồi ạ","598e6663155182c95241ef41"
"sao mình đặt vé 199k","598e6667b2342b904b36c066"
"Chào bạn, bạn thao tác thanh toán và nhận được vé điện tử từ ATADI gửi về chưa ạ ?","598e6672155182c95241ef43"
"mà đến lúc thông báo đặt vé thành công lại là vé 480k","598e6674155182c95241ef44"
"@@","598e6675b2342b904b36c067"
"Mã đặt chỗ  IKCNBK, đổi thời gian bay từ 6:30 ngày 16/08/2017 thành chuyến 15:00 ngày 15/08/2017, Mã đặt chỗ  QRSIBH, đổi thời gian bay từ thời gian nào sang thời gian nào nhỉ?","598e6680155182c95241ef46"
"Chào bạn, bạn đã đặt vé và nhận được xác nhận giữ chỗ thành công từ ATADI gửi về chưa ạ ?","598e6684155182c95241ef47"
"Chào bạn, bạn đã đặt vé và nhận được xác nhận giữ chỗ thành công từ ATADI gửi về chưa ạ ?","598e6687155182c95241ef48"
"Chào bạn, bạn đã đặt vé và nhận được xác nhận giữ chỗ thành công từ ATADI gửi về chưa ạ ?","598e668f155182c95241ef49"
"mình vừa nhận đx xác nhận giữ chỗ","598e669c155182c95241ef4a"
"Gía 199k chưa bao gồm thuế phí nhé","598e66a2155182c95241ef4b"
"chào bạn, bạn inbox ngoài giờ hành chính nên ad chưa trả lừoi bạn kịp, vậy bạn đã được hỗ trợ dịch vụ xe rồi đúng không ạ 
?","598e66b0b2342b904b36c068"
"nhưng mình đặt vé 199k mà lúc xác nhận giữ chỗ lại là 480k, mình đặt 2 vé tổng chi phí lên tận 1tr6","598e66b8b2342b904b36c069"
"Chào bạn, bạn đã đặt vé và nhận được xác nhận giữ chỗ thành công từ ATADI gửi về chưa ạ ?","598e66c3155182c95241ef4d"
"Bạn ơi. Minh nạp tien tk tt thi khi nao moi co","598e66c4155182c95241ef4e"
"trong khi lúc xác nhận đặt vé có gần 1tr","598e66c7b2342b904b36c06b"
"Chào bạn, bạn đã đặt vé và nhận được xác nhận giữ chỗ thành công từ ATADI gửi về chưa ạ ?","598e66ce155182c95241ef4f"
"bạn đã thanh toán và nhận được vé điện tử từ ATADI gửi về chưa ạ ?","598e66d5b2342b904b36c06c"
"rồi","598e66dfb2342b904b36c06d"
"​Lời nói đầu tiên, atadi.vn cám ơn bạn đã quan tâm đến hoạt động và dịch vụ của atadi.vn trong thời gian vừa qua.
Hiện tại, atadi.vn đang mở rộng mô hình đại lý ở nhiều vùng miền trên cả nước với nhiều ưu đãi hấp dẫn:
Không cần ký quỹ

Phí xuất vé thấp (chỉ 22.000​​đ)

Thưởng doanh số khi đạt doanh số 100 vé: 10.000 đ/vé (không giới hạn thời gian đạt doanh số)

Thao tác cực kỳ đơn giản, không cần nghiệp vụ

Bán ngay vé 3 hãng chỉ bằng một tài khoản trả trước của atadi

Hoàn toàn tự động (nạp tiền, đặt vé, xuất vé, gửi tin nhắn, ...)

Nếu bạn còn thắc mắc, vui lòng gửi mail về hotro@atadi.vn để được hỗ trợ đầy đủ nhé!","598e66e7b2342b904b36c06e"
"giờ sáng mai bay 6h05 từ pusan","598e66ec155182c95241ef52"
"mình muốn mua thêm hành lý","598e66f7b2342b904b36c070"
"Bạn có 2 cách để mua bổ sung như sau:
Cách 1:
dùng đúng Số Điện Thoại đăng ký đặt vé gọi về Vietjet: 1900 1886 cung cấp MÃ ĐẶT CHỖ để yêu cầu hãng hỗ trợ và hãng sẽ treo nợ khi ra sân bay bạn thanh toán sau
Liên hệ với hãng tối thiểu 3 tiếng trước giờ bay
Cách 2: 
yêu cầu ATADI hỗ trợ thì bạn cần thanh toán ngay. ATADI thu thêm phí hỗ trợ 33,000đ/người/chặng nhé
Bạn vui lòng cung cấp những thông tin sau, ad sẽ hỗ trợ gửi email cho bạn, bạn chỉ cần xác nhận lại email là được nhé: 
+ MÃ ĐẶT CHỖ
+ Họ tên hành khách đứng tên gói hành lý
+ Gói hành lý ký gửi cần mua bao nhiu kg ( tối thiểu 15kg và tối đa là 40kg ) 
+ Email đăng ký khi đặt vé, tên, sđt, người liên hệ
Thao tác qua ATADI tối thiểu 6 tiếng trước giờ bay và trong giờ hành chính","598e66fbb2342b904b36c071"
"bạn chú ý click vào phần hiển thị thuế và phí hãng nhé","598e6713155182c95241ef58"
"mình biết rồi","598e6722b2342b904b36c072"
"đây là thông tin quyền lợi đại  lý","598e6723155182c95241ef5b"
"lúc mình đặt vé 199k, tổng 2 vé là gần 1tr cả phí","598e672fb2342b904b36c077"
"nếu mình mua 20kg giá bn bạn nhỉ","598e6733b2342b904b36c078"
"còn đây là cách thức đăng ký đại lý ATADI","598e6737b2342b904b36c079"
"giá trả về trong xác nhận đặt chỗ thành công là giá cuối cùng thanh toán nhé.","598e673b155182c95241ef5d"
"lúc mình xác nhận đặt chỗ thì đến lúc thông báo vào mail là 1tr6","598e673f155182c95241ef5e"
"mua online rẻ hơn mua tại sb đúng ko","598e6746155182c95241ef5f"
"chào bạn, bạn liên hệ ngoài giờ hành chính nên giờ ad mới trả lời bạn được","598e6762155182c95241ef60"
"hệ thống ko đặt đc vé 199k thì thông báo ko đặt đc,sao lại tự động đặt vé 480k","598e6763155182c95241ef61"
"-_-","598e6766b2342b904b36c07b"
"bạn đã thanh toán và nhận được vé điện tử từ ATADI gửi về chưa ạ ?","598e677cb2342b904b36c07e"
"Chào bạn, bạn đã thanh toán và nhận được vé điện tử từ ATADI gửi về chưa ạ ?","598e678cb2342b904b36c080"
"chào bạn, bạn đang chọn hình thức thanh toán và thao tác như thế nào vậy ạ ?","598e67d5155182c95241ef63"
"M ck mbbanking ah","598e67f9b2342b904b36c087"
"1. Gía vé có thể biến động, 20s bên ad cập nhật giá vé 1 lần ạ","598e6807b2342b904b36c089"
"bạn kiểm tra lại giúp mình","598e680e155182c95241ef66"
"mã 83893617G7","598e680f155182c95241ef67"
"bạn đã thanh toán và nhận được vé điện tử từ ATADI gửi về chưa ạ ?","598e6813b2342b904b36c08b"
"bạn ơi, là bạn đxa mua xong vé cho người lớn, và bây giờ cần mua bổ sung thêm vé cho trẻ em hả bạn ?","598e6814b2342b904b36c08c"
"Chưa b oi","598e681d155182c95241ef68"
"nên giá có thể thay đổi trong quá trình bạn thao tác ạ","598e6821155182c95241ef69"
"mình đã mua xong rồi b","598e6827155182c95241ef6a"
"Minh đặt mà he thông no báo lỗi k à","598e6827b2342b904b36c08e"
"cảm ơn b","598e6829b2342b904b36c08f"
"2. Như ad đã nói","598e682d155182c95241ef6b"
"Bạn vui lòng cung cấp thêm thông tin sau để ad hỗ trợ tra soát giao dịch nhé:
- Số tiền chính xác đã thanh toán​​
- Mã hồ sơ, mã TKTT cần thanh toán
- Thời điểm thanh toán
- Nếu bạn chuyển khoản vui lòng cung cấp: 
​  + C​huyển từ ngân hàng nào qua ngân hàng nào của ATADI 
​  + N​ội dung chuyển khoản nếu có","598e682fb2342b904b36c090"
"giá 199k là giá chưa bao gồm thuế phí","598e6836155182c95241ef6c"
"mình đặt vé nhiều rồi mình biết thuế phí, ok","598e6844b2342b904b36c093"
"tất nhiên giá trả về cuối cùng là giá cộng vào thuế phí rồi nên có giá là 480,000 như bạn nói","598e685e155182c95241ef75"
"chứ hệ thống không tự tìm 1 vé có giá cao hơn cho bạn ạ","598e686fb2342b904b36c098"
"vé 199k cả thuế phí là 1tr, mà đến lúc mình lick vào chữ đặt vé, hệ thống bên bạn thao tác xong thì tăng lên 1tr6","598e687ab2342b904b36c09a"
"Ah. Co roi bạn nha. Tại minh cần gấp để đặt ve. Sợ lên gia ay","598e687f155182c95241ef76"
"Thank bạn","598e6881155182c95241ef77"
"tiền mình phải trả là 1tr6 cho 2 vé chứ ko phải là 480k","598e6895155182c95241ef79"
"mà mình đặt vé 199k","598e6899b2342b904b36c0a2"
"bạn ko hiểu ak","598e689d155182c95241ef7a"
"vé bạn là hãng Vietjet đã thanh toán chặng bay quốc tế , phí hành lý quốc tế cần phải kiểm tra lại với hãng, nên bạn có thể thao tác như 2 cách ad hướng dẫn, nhân viên sẽ báo phí cho bạn chính xác, nhận được phí bạn có thể tham khảo khôngg thanh toán cũng được ạ","598e68b0155182c95241ef7b"
"1 vé 480,000 như bạn nói","598e68b4155182c95241ef7c"
"và như ad đã giải thích ở trên","598e68c0155182c95241ef7f"
"2 người như ban đầu bạn dự định thì gần 1tr","598e68d1155182c95241ef81"
"okie","598e68d7155182c95241ef82"
"Bạn vui lòng cung cấp thêm thông tin sau để ad hỗ trợ tra soát giao dịch nhé:
- Số tiền chính xác đã thanh toán​​
- mã TKTT cần thanh toán
- Thời điểm thanh toán
- Nếu bạn chuyển khoản vui lòng cung cấp: 
​  + C​huyển từ ngân hàng nào qua ngân hàng nào của ATADI 
​  + N​ội dung chuyển khoản nếu có","598e68e1155182c95241ef83"
"để mình gọi lên hãng xem sao","598e68e5b2342b904b36c0a3"
"cảm ơn bạn nhé","598e68e8b2342b904b36c0a4"
"đúng, vé 199k mình đặt thì tổng chi phí mình phải trả là gần 1tr","598e68e9155182c95241ef84"
"nhưng giá vé có thể thay đổi trong quá trình bạn thao tác nhé, vì 20s atadi cập nhật giá vé 1 lần ạ","598e68efb2342b904b36c0a6"
"bạn chuyển khoản bằng internet baking, ra ngân hàng hay  mớ email xác nhận giữu chỗ thành công ATADI gửi về và nhấp vào thanh toán online vậy bạn ?","598e68f6b2342b904b36c0a7"
"Rất vui được hỗ trợ bạn, cám ơn bạn đã quan tâm và sử dụng dịch vụ của atadi.vn nhé. Nếu cần hỗ trợ gì thêm bạn cứ inbox cho ad nhé. Chúc bạn cuối tuần vui vẻ nhé ^^","598e6904b2342b904b36c0aa"
"nếu bạn không đồng ý với mức giá cuối cùng trong xác nhận giữ chỗ thành công, bạn có thể bỏ qua vé này nhé","598e690fb2342b904b36c0ab"
"bạn chọn hành trình bay khi nào, chặng nào, và lõio cụ thể hiển thị gì ạ ?","598e6917b2342b904b36c0ad"
"đặt lại vé khác nhé","598e691eb2342b904b36c0ae"
"Đây ạ! Mình gửi hình ảnh 2 lần chuyển khoản thành công của mình","598e6925155182c95241ef88"
"Minh chọn chuyến bay xong","598e692a155182c95241ef89"
"Nó cứ load vào","598e692fb2342b904b36c0af"
"là bạn đã đặt được vé xong rồi ạ, có thành toán và nhận được vé điện tử chưa ạ ?","598e6934b2342b904b36c0b0"
"Đây là giao dịch chuyển từ vietcombank sang vietcombank ạ","598e6941155182c95241ef8a"
"mình chỉ thắc mắc, tại sao lúc mình lick vào chữ đặt vé, hệ thống bắt đầu thao tác, giá vé mình vẫn là gần 1tr. mà đến lúc hệ thống thao tác xong thì lại lên 1tr6","598e694fb2342b904b36c0b1"
"rồi b","598e6951155182c95241ef8d"
"Còn đây là giao dịch từ ngân hàng BIDV sang sacombank ạ","598e6957b2342b904b36c0b2"
"Bạn có mặt tại sân bay 2 tiếng so với giờ khởi hành, cung cấp MÃ ĐẶT CHỖ cho nhân viên làm thủ tục checkin và kèm theo giấy tờ tùy thân hợp lệ nhé.","598e6962155182c95241ef8f"
"Cảm ơn ad","598e6972b2342b904b36c0b4"
"chúc bạn có chuyến bay vui vẻ nhé","598e697fb2342b904b36c0b5"
"Ok bạn. Thanks ban","598e6987b2342b904b36c0b6"
":(","598e698e155182c95241ef91"
"Vì tra cứu thông tin chuyển khoản là quy trình phức tạp nên ATADI có riêng 1 bộ phận chuyên trách để hỗ trợ bạn tốt hơn, bạn có thể cho ad xin email, họ tên, sđt để ad chuyển thông tin cho bộ phận tra cứu, sẽ có nhân viên tiếp nhận và trao đổi với bạn qua email luôn nhé","598e6991155182c95241ef92"
"dạ ad hiểu ý bạn ạ","598e6995b2342b904b36c0b7"
"các bước mình thao tác thì ok mình chấp nhận có ng nhanh tay hơn","598e69a2155182c95241ef94"
"Mình k thể đặt lại đc vé","598e69a5155182c95241ef95"
"Thanhngan922000@gmail.com ạ","598e69aa155182c95241ef98"
"Đặt rồi chuyển khoane rồi","598e69b1155182c95241ef9a"
"Họ tên mình là đặng thị thanh ngân","598e69b4155182c95241ef9b"
"Sdt mình là 01675282737","598e69bb155182c95241ef9c"
"nhưng hệ thống bắt đầu thao tác thì ai đặt trước thì phải đc chứ","598e69be155182c95241ef9d"
"Giờ chưa nhận đc lại bị huỷ vé","598e69be155182c95241ef9e"
"Giờ đặt lại thì lại k đc","598e69c7b2342b904b36c0bc"
"Mình cũng đã thắc mắc từ hôm qua nhưng vẫn chưa nhận được hồi đáp","598e69e0155182c95241efa0"
"dạ","598e69e5b2342b904b36c0be"
"chúc bạn có chuyến bay vui vẻ nhẻ","598e69ed155182c95241efa4"
"Chưa ạ.","598e6a37b2342b904b36c0c7"
"Cả 2 mã đổi sang 15:00 15/8 ạ","598e6a5ab2342b904b36c0c9"
"Hệ thống ghi nhận giá tại thời điểm bạn click vào ""đặt vé "" ạ","598e6a64155182c95241efa8"
"bạn thông cảm giúp ad nhé","598e6a6cb2342b904b36c0ca"
"Tôi đã thanh toán.  Nhưg chưa thấy xác nhận book đc vé","598e6a86155182c95241efac"
"bạn thanh toán bằng tiền mặt được nhé","598e6b09155182c95241efb6"
"Mình đặt vé như bình thường, rồi thanh toán tiền mặt ở đâu ạ?.","598e6b33b2342b904b36c0e3"
"thế bây giờ mình có đặt vé khác đc nữa ko","598e6b34155182c95241efbc"
"ad thấy hiện tại đã có nhân viên tiếp nhận  trường hợp của bạn qua email sẽ sớm phản hồi cho bạn thôi, bạn yên tâm nhé","598e6b85155182c95241efc1"
"Ok ạ","598e6ba0b2342b904b36c0ea"
"1.Nộp tiền mặt trực tiếp tại ngân hàng 
2.Thanh toán tiền mặt tại cửa hàng tiện lợi qua cổng thanh toán Payoo (Bạn có thể đến Viễn Thông A, B'smart, Familymart, Ministop, CircleK, Vinpro, Nguyễn Kim để thanh toán nhé)","598e6bc4b2342b904b36c0eb"
"dạ được ạ","598e6bcf155182c95241efc3"
"mà hết rồi còn đâu :(","598e6be2155182c95241efcc"
"Mã đặt chõ QRSIBH, thời gian bay ban đầu là như thế nào ạ?","598e6c0ce2efb51770021e4f"
"MA VE KESZME minh dat thanh toan khong duoc du van trong thoi han thanh toan theo quy dinh cua atadi","598e6c1b155182c95241efd4"
"Okay ạ. Giờ mình đặt vé xong ra NH thanh toán là xong phải ko ạ?.","598e6c29e2efb51770021e57"
"goi tong dai thi qua vong vo mat tien va thoi gian","598e6c38e2efb51770021e58"
"huhu, người mua nhiều, số lượng vé lại có hạn :(","598e6c8b155182c95241efdf"
"bạn thao tác nhanh tìm vé khác nhe","598e6c9ee2efb51770021e5e"
"dạ, gần bạn có ngân hàng nào nhỉ?","598e6cb5155182c95241efe2"
"Có phải bạn đang mua vé có ngôi sao màu vàng đúng không ạ?","598e6d35155182c95241efef"
"Chào bạn, bạn đã đặt vé và nhận được xác nhận giữ chỗ thành công từ ATADI gửi về chưa ạ ?","598e6d35e2efb51770021e66"
"Roi","598e6d50e2efb51770021e69"
"Nhung thanh toan bang bidv online thi báo mã kg thanh toan dc","598e6d6f155182c95241eff4"
"Minh mua ve atadi va thanh toan kieu do lien tuc. Den lan nay thi khong the thanh toan","598e6d9be2efb51770021e6c"
"Goi tong dai 4p thi nghe nhac và chờ chac cung 3p","598e6df8155182c95241eff8"
"Potay","598e6dfa155182c95241eff9"
"Vâng","598e6e74155182c95241f002"
"vậy vui lòng thoát ra rồi thao tác lại giúp ad nhé, vì ad kiểm tra lại hệ thống vẫn bình thường ạ","598e6e76e2efb51770021e79"
"Hôm trc k có","598e6e77155182c95241f004"
"Hôm nay lại có","598e6e7ce2efb51770021e7a"
"bạn có thể cho ad biết nơi đi, nơi đến, ngày giờ bay ạ","598e6e99155182c95241f007"
"Mình đã nhận email r bạn","598e6f2b155182c95241f015"
"Mình đi ha noi","598e6f3c155182c95241f019"
"26-30/9","598e6f46155182c95241f01a"
"Thời gian ban đâuf là 6:30","598e6fa1e2efb51770021e9d"
"Cả 2 mã cũng thời gian bay mà b","598e6fc6155182c95241f026"
"Hệ thống đã hoàn tiền lại sáng nay","598e6fec155182c95241f02b"
"bạn click vào link thanh toán trong mail xác nhận đặt chỗ thành công hay chuyển tiền từ thẻ BIDV sang tài khoản ngân hàng bên ad nhỉ?đ","598e7000e2efb51770021eaa"
"Thanh toan theo mã chỉ can nhập mã tự bidv se biet so tien de tt","598e7032e2efb51770021eae"
"Nhung lan nay thi chiu","598e703be2efb51770021eaf"
"bạn chưa nhận được vé máy bay điện tử đúng không ạ? Bạn hỗ trợ cung cấp giúp ad những thông tin sau để bộ phận ra soát hỗ trợ bạn nhé","598e7054e2efb51770021eb0"
"- Số tiền chính xác đã thanh toán​​
- Mã TKTT cần thanh toán
- Thời điểm thanh toán
- Nếu bạn chuyển khoản vui lòng cung cấp: 
​  + C​huyển từ ngân hàng nào qua ngân hàng nào của ATADI 
​  + N​ội dung chuyển khoản nếu có","598e7064155182c95241f02f"
"ad xin lỗi nhầm ạ :(","598e7077155182c95241f031"
"Voi bidv online chi nhap mã dat cho thi se tu dong thanh toan","598e707de2efb51770021eb2"
"Mã hồ sơ của bạn là gì ạ","598e7080e2efb51770021eb3"
"KESZME","598e7093155182c95241f032"
"bạn thanh toán bao lâu rồi nhỉ?","598e709ae2efb51770021eb5"
"Mã chỗ đó ban","598e70a2155182c95241f033"
"Sáng sớm","598e70a7155182c95241f034"
"Chuyen đi 18:00-20:05","598e70ae155182c95241f035"
"Chuyen về 17:30-...","598e70bb155182c95241f036"
"khoảng mấy giờ bạn nhỉ?","598e70bd155182c95241f037"
"Ma cung kg tt dc  quá 9h44 la het dc thanh toan","598e70cae2efb51770021eb6"
"Minh hieu dieu do nen ban an tam. Minh thanh toan cai nay thang nao cung 4-5 vé là it","598e70f1e2efb51770021eb8"
"là bạn vẫn chưa thanh toán thành công, thẻ chưa bị trừ tiền ạ","598e711662d170d11401ba7e"
"Mã the bao kg thanh toan dc do sai","598e713062d170d11401ba7f"
"Nen dau tt dc dau ban","598e713b62d170d11401ba80"
"Ad sẽ tiếp nhận thông tin này báo với bộ phận kĩ thuật vấn đề này ạ, Ad xin lỗi vì sự bất tiện này nhé","598e7143e2efb51770021ebe"
"đó là vé siêu khuyến mãi-vé này hãng không cho giữ chỗ, ATADI hỗ trợ khách hàng mua được vé này bằng Tài khoản thanh toán trên atadi.vn. Bạn cần nạp tiền vào đó trước sau đó mua vé ạ","598e7192e2efb51770021ec1"
"Thế mình k có thì k mua đc ạ","598e71b562d170d11401ba88"
"Vâng ạ, vì loại vé này khá đặc biệt là hãng không cho giữ chỗ như những vé thông thường, dù bạn mua trực tiếp trên hãng thì tính chất vé cũng như vậy,trong khi đó bạn chỉ có thẻ mua được vé này bằng thẻ visa(tuy nhiên như bạn biết thẻ visa không phải quá thông dụng đối với nhiều người sử dụng). Ngược lại thì ATADI hiện nay là đơn vị duy nhất trên thị trường tạo ra công cụ tài khoản thanh toán này để hỗ trợ khách hàng mua được vé, bạn chỉ việc nạp tiền vào sau đó mua vé ạ","598e733be2efb51770021ed2"
"Check giúp mình với","598e73a3e2efb51770021ed5"
"Bạn ktra giúp mình tên Phạm Thị Xuân Liên đã đặt chổ đi Sg-dn lúc 20:10 ngay 17/8 và mình đã ck số tiền là 1,167 sang nay","598e73f762d170d11401ba9d"
"Nguoi ck la Truong Thuy Thao Tran ah","598e740c62d170d11401ba9f"
"Mình đã ck nhé bạn ktra giúp mình ah va gui cho m thong tin xac nhan chuyen bay ah","598e74ca62d170d11401baac"
"mỗi mã đặt chỗ có 1 hành khách ạ","598e74f762d170d11401baae"
"Với số tiền 2.228.659 hiện tại ATADI vẫn đang giữ số tiền này của bạn, nếu bạn muốn thì ATADI sẽ hỗ trợ bạn chuyển số tiền này vào tài khoản thanh toán trên atadi.vn để bạn nhanh chóng mua được vé ạ","598e74fe62d170d11401baaf"
"Nhưng bên bạn báo là chưa nhận đc","598e756262d170d11401bab1"
"Bảo thứ 2 mới về tiền","598e756ae2efb51770021eed"
"Lúc đấy mới xác nhận cho mình","598e758262d170d11401bab3"
"Chào bạn","598e75c7e2efb51770021ef1"
"Mình đã từng đặt rất nhiều vé máy bay bên atadi","598e75f6e2efb51770021ef3"
"Sắp tới mình cũng đặt bên bạn","598e7606e2efb51770021ef4"
"Nhưng mình có bầu 30tuan","598e760fe2efb51770021ef5"
"Thì có đi máy bay đc ko? Có cần điều kiện gì ko a?","598e7623e2efb51770021ef6"
"Chào bạn, bạn đã đặt vé và nhận được xác nhận giữ chỗ thành công từ ATADI gửi về chưa ạ ?","598e769ce2efb51770021efe"
"Mình nhắn 2 mã đó bạn","598e76bae2efb51770021f01"
"2 người mà","598e76be62d170d11401babc"
"Cả họ tên và mã đặt chỗ đó","598e76c6e2efb51770021f02"
"NGUYEN THI THUY NGAN. mã đặt chỗ: IKCNBK","598e76d6e2efb51770021f03"
"dạ, ad biết 2 người, ý ad là mỗi người một mã đặt chỗ ạ","598e76dae2efb51770021f04"
"NGUYEN CONG PHI: MÃ ĐẶT CHỖ: QRSIBH","598e76e4e2efb51770021f05"
"2 người 2 mã đó","598e76ea62d170d11401babe"
":|","598e76ede2efb51770021f06"
"alo ad ơi","598e76f7e2efb51770021f07"
"Đọc kỹ tin nhắn giúp mình với","598e76fd62d170d11401babf"
"mỗi mã đặt chỗ có thể có tối đa 6 hành khách","598e770f62d170d11401bac0"
"cho mình hỏi xíu. Mình lỡ chuyển khoản để thanh toán vé máy bay vietjet. Nhưng mình lại quên mất chưa nhập nội dung chuyển khoản là số hồ sơ. Bây giờ phải làm sao vậy ad","598e772362d170d11401bac2"
"bạn cung cấp mã đặt chỗ trên, ý ad hỏi là mã đó chỉ có 1 hành khách đúng không?","598e7728e2efb51770021f0b"
"Vậy hiện tại nếu bạn cần mua ngay vé này thì bạn có thể nạp tiền vào tài khoản thanh toán. Ad có thể hướng dẫn bạn thao tác luôn nhé","598e772c62d170d11401bac3"
"Đúng rồi bạn","598e7733e2efb51770021f0c"
"nếu có hơn thì tất cả cùng đổi thời gian phải khồng?","598e773be2efb51770021f0d"
"dạ vâng","598e774062d170d11401bac6"
"chỉ có 1 người ạ","598e774462d170d11401bac7"
"Mỗi mã 1 người","598e7753e2efb51770021f0f"
"Vì mình đặt 2 hành trình riêng biệt","598e775ee2efb51770021f10"
"bạn đã thanh toán và nhận được vé điện tử từ ATADI gửi về chưa ạ ?","598e7774e2efb51770021f11"
"Mình ra thanh toán tại cưa hàng fpt đc k","598e7778e2efb51770021f12"
"ảnh bạn chụp gửi ad là email do hãng VNA gửi về, bạn nhấp vào email do ATADI gửi về để chọn mục thanh toán online bạn nha, chứ tại email VNA gửi như ảnh bạn không chọn thanh toán được đâu ạ !","598e779c62d170d11401bacb"
"Bạn vui lòng kiểm tra và xác nhận mail giúp ad nhé","598e77b762d170d11401bacc"
"Minh đang hỏi bạn chứ chưa đặt","598e77c562d170d11401bad0"
"Bidv online chỉ cần mã KH là thanh toán thôi bạn nhé","598e77cb62d170d11401bad1"
"Bộ phận chuyên trách sẽ tiếp nhận trường hợp của bạn và phản hồi qua mail nhé","598e77d5e2efb51770021f15"
"Mình tt nhieu lan roi chu khg fai lần đầu","598e77e962d170d11401bad7"
"Bạn vui lòng cung cấp thêm thông tin sau để ad hỗ trợ tra soát giao dịch nhé:
- Số tiền chính xác đã thanh toán​​
- Mã hồ sơ
- Thời điểm thanh toán
- Nếu bạn chuyển khoản vui lòng cung cấp: 
​  + C​huyển từ ngân hàng nào qua ngân hàng nào của ATADI 
​  + N​ội dung chuyển khoản nếu có","598e77ec62d170d11401bad8"
"Biết đc điều kiện thì mình mới chọn ngày và đặt vé","598e77f1e2efb51770021f18"
"Chuyển từ vietcombank sang agribank","598e7876e2efb51770021f1e"
"Nội dung là: XAC NHAN DAT CHO CHO NGUYEN CANH TUAN","598e78a662d170d11401baea"
"Ad kiểm soát lại giúp","598e78d162d170d11401baef"
"Mình rep mail rồi nhé","598e790f62d170d11401bafe"
"Đối với Jetstar,nếu bạn đang mang thai 30 tuần, bạn sẽ cần có chứng nhận sức khỏe, trong đó bác sỹ cần xác nhận số tuần có thai và hành khách đủ sức khỏe để thực hiện chuyến baykhông trễ hơn 10 ngày trước khi bay.                                                                                                               Đối với Vietnamairline, thai 30 tuần, bạn chấp nhận vận chuyển như những hành khách thông thường khác.
Đối với Vietjetair ,bạn cần xuất trình giấy xác nhận của bác sỹ, giấy xác nhận của bác sỹ cần xác nhận số tuần có thai và hành khách đủ sức khỏe để thực hiện chuyến bay; giấy xác nhận phải được phát hành trong vòng 07  ngày tính từ ngày khởi hành của chuyến bay đi hoặc ngày khởi hành của chuyến bay về dự kiến tùy từng trường hợp và phải ký bản miễn trừ trách nhiệm tại thời điểm làm thủ tục đăng ký bay để miễn trừ cho Vietjet bất kỳ trách nhiệm nào phát sinh sau đó.","598e7a07e2efb51770021f3a"
"Chao ban,minh muon duoc tu van","598e7b11e2efb51770021f46"
"bạn đang chọn thanh toán vé máy  bay với ngân hàng BIDV cho hãng luôn đó ạ, trường hợp này nếu bạn thanh toán ATADI sẽ không nhận được tiền đâu, ATADI chỉ nhận được tiền nếu ban thao tác  đúng quy trình là vào email xác nhận giữ chỗ tahnfh công -> chọn thanh toán online -> nhập thông tin thẻ -> nhấn thanh toán","598e7b1f62d170d11401bb0d"
"Như ad có nói ở trên nếu bạn mua vé siêu khuyến mãi (tức vé hãng không cho giữ chỗ, yêu cầu bạn thanh toán bằng tài khoản thanh toán) thì thanh toán tại FPT là không được bạn nhé","598e7b6662d170d11401bb0f"
"vậy bạn mua vé chưa thành công rồi ạ ? bạn có được nhân viên liên hệ hỗ trợ hay cần ad kiểm tra thông tin vé không ạ ?","598e7b6fe2efb51770021f4c"
"Bạn vui lòng cung cấp thêm thông tin sau để ad hỗ trợ tra soát giao dịch nhé:
- Số tiền chính xác đã thanh toán​​
- Mã hồ sơ cần thanh toán
- Thời điểm thanh toán
- Nếu bạn chuyển khoản vui lòng cung cấp: 
​  + C​huyển từ ngân hàng nào qua ngân hàng nào của ATADI 
​  + N​ội dung chuyển khoản nếu có","598e7b87e2efb51770021f4e"
"chào bạn, Bạn vui lòng cung cấp thêm thông tin sau để ad hỗ trợ tra soát giao dịch nhé:
- Số tiền chính xác đã thanh toán​​
- Mã hồ sơ cần thanh toán
- Thời điểm thanh toán
- Nếu bạn chuyển khoản vui lòng cung cấp: 
​  + C​huyển từ ngân hàng nào qua ngân hàng nào của ATADI 
​  + N​ội dung chuyển khoản nếu có","598e7b9fe2efb51770021f4f"
"Minh hay di cong tac,vay minh cung cap thong tin cong ty de atadi xuat ve dien tu a?khi mua ve tren he thong minh van dat tên mình dung ko?","598e7ba662d170d11401bb13"
"Trên là những quy định của hãng hàng không, bạn cân nhắc lựa chọn chuyến bay phù hợp nhé","598e7babe2efb51770021f51"
"minh dc xac nhan roi ah","598e7bbfe2efb51770021f53"
"Mọi chi tiết sẽ đươc phản hồi cho bạn qua emai, Rất vui được hỗ trợ bạn, cám ơn bạn đã quan tâm và sử dụng dịch vụ của atadi.vn nhé. Nếu cần hỗ trợ gì thêm bạn cứ inbox cho ad nhé. Chúc bạn 1 ngày vui vẻ","598e7bc362d170d11401bb15"
"bạn đi từ đâu đến Hà Nội ạ","598e7bcd62d170d11401bb17"
"vậy là bạn nhận được vé điện tử từ ATADI gửi về qua email và sms sđt đăng ký khi đặt vé rồi ạ ?","598e7be562d170d11401bb19"
"Cảm ơn bạn","598e7beee2efb51770021f57"
"Mình sẽ và luôn đặt vé bên atadi","598e7bf062d170d11401bb1b"
"dạ","598e7bf262d170d11401bb1c"
"minh nhan dc ca roi","598e7bf8e2efb51770021f58"
"den luc do m chi viec den de lam thu tuc thoi dung ko ah","598e7c0862d170d11401bb21"
"trường hợp này, bạn chuyển khoản liên ngân hàng thì mất 3 tiếng (trong giờ làm việc của ngân hàng) ATADI mới nhận được khoản tiền này để kịp xuất vé cho bạn nhé.","598e7c0962d170d11401bb22"
"Minh book dc r","598e7c0e62d170d11401bb24"
"Tks b nha","598e7c1062d170d11401bb25"
"Sau khi ATADI nhận được chính xác số tiền thanh toán trước thời hạn quy định, VÉ ĐIỆN TỬ sẽ được gửi về Email, Zalo và tin nhắn về số điện thoại bạn đăng ký ban đầu.
Bạn có mặt tại sân bay 2 tiếng so với giờ khởi hành, cung cấp MÃ ĐẶT CHỖ cho nhân viên làm thủ tục checkin và kèm theo giấy tờ tùy thân hợp lệ nhé.","598e7c51a01e315c3e677b1b"
"Dạ, bạn lưu ý thanh toán trong thời hạn thanh toán nhé","598e7c7fa01e315c3e677b1c"
"Chúc bạn có chuyến bay vui vẻ","598e7c8fa01e315c3e677b1d"
"nha minh co tre duoi 2tuoi co phai mua ve khong?minh thay vietjet co chia muc 2-11tuoi va <24 thang tuoi nhung o san gia re ko thay muc nay?","598e7c92a01e315c3e677b1e"
"alo e","598e7caba01e315c3e677b20"
"anh đặt vé qua Atadi","598e7cb362d170d11401bb31"
"bay ngày 3/9","598e7cb662d170d11401bb32"
"giờ a muốn đổi ngày","598e7cbb62d170d11401bb34"
"thì thủ tục thế nào em","598e7cbda01e315c3e677b25"
"Rất vui được hỗ trợ bạn, cám ơn bạn đã quan tâm và sử dụng dịch vụ của atadi.vn nhé. Nếu cần hỗ trợ gì thêm bạn cứ inbox cho ad nhé. Chúc bạn 1 ngày vui vẻ","598e7cca62d170d11401bb36"
"Tks b nhé","598e7ccea01e315c3e677b2a"
"cam on ban da ho tro ah","598e7ce2a01e315c3e677b32"
"- 972.125 đồng, mã hồ sơ của mình là 2G49799887, thời điểm chuyển khoản là 10h27 phút ngày 12/8","598e7d0862d170d11401bb42"
"chuyển khoản từ ngân hàng ACB sang agribank chi nhánh trường sơn","598e7d1a62d170d11401bb43"
"mong bạn hỗ trợ giúp mình nhen","598e7d2c62d170d11401bb4a"
"Tuy nhiên qua những thông tin bạn cung cấp ad phân tích để những lần sau bạn lưu ý giúp ad để tránh tình trạng này bạn nhé. Thứ nhất, bạn có tài khoản của ngân hàng Vietcombank trong khi đó trong email xác nhận giữ chỗ ATADI gửi về cho bạn cũng có cung cấp số tài khoản của ngân hàng Vietcombank bên ad nữa mà sao bạn lại không chuyển cho cùng hệ thống ngân hàng >.<. Thứ hai, nội dung chuyển khoản bạn cần ghi đúng Mã hồ sơ bạn nhé (trong email cũng đã hướng dẫn).","598e7d65a01e315c3e677b46"
"bây giờ ad sẽ chuyển những thông tin bạn cung cấp ở trên sang bộ phận chuyên trách tra soát hỗ trợ bạn tốt hơn qua email bạn nhé. Bạn vui lòng cho ad xin họ tên, email, số điện thoại khi đặt vé ạ","598e7df6a01e315c3e677b4b"
"ACB, Sacombank, Techcombank, VP Bank, BIdV ạ","598e7ebaa01e315c3e677b52"
"Cho e hỏi đặt vé rồi. Có the ra FPT shop thanh toán tiền mặt đc ko ạ?","598e7ef7a01e315c3e677b59"
"Chào bạn, bạn đã đặt vé và nhận được xác nhận giữ chỗ thành công từ ATADI gửi về chưa ạ ?","598e80d0a01e315c3e677b6e"
"Rồi a","598e80e6a01e315c3e677b71"
"Sau khi bạn đặt giữ chỗ thành công ATADI sẽ gửi mail xác nhận, trong nội dung mail có: 
+ Tổng số tiền cần thanh toán 
+ Thời hạn thanh toán 
+ Thông tin hành trình bay 
+ Hướng dẫn 4 hình thức thanh toán 
>>>> bạn kiểm tra lại lần nữa các thông tin thât chính xác và tiến hành thanh toán 
Bạn có thể chọn những hình thức thanh toán sau: 
1/ Chuyển khoản cùng hệ thống ngân hàng với ATADI 
2/ Nộp tiền mặt trực tiếp tại ngân hàng 
3/ Thanh toán online nếu bạn có tài khoản ngân hàng và có dịch vụ internetbanking 
4/ Thanh toán bằng thẻ Visa/ thẻ Tín Dụng/ thẻ Mastercard 
5/ Thanh toán tiền mặt tại cửa hàng tiện lợi qua cổng thanh toán Payoo (Bạn có thể đến Viễn Thông A, B'smart, Familymart, Ministop, CircleK, Vinpro, Nguyễn Kim để thanh toán nhé) 
Lưu ý: thanhh toán xong tại cửa hàng tiện lợi TỐI THIỂU 60 phút trước hạn thanh toán của vé, báo với nhân viên cần thanh toán ""hóa đơn thương mại điện tử"" và cung cấp mã thanh toán tiền mặt bắt đầu bằng 888xxxxxx, bạn xem ở email ATADI gửi cho bạn nhé
Sau khi ATADI nhận được chính xác số tiền thanh toán trước thời hạn quy định, VÉ ĐIỆN TỬ sẽ được gửi về Email, Zalo và tin nhắn về số điện thoại bạn đăng ký ban đầu.
Bạn có mặt tại sân bay 2 tiếng so với giờ khởi hành, cung cấp MÃ ĐẶT CHỖ cho nhân viên làm thủ tục checkin và kèm theo giấy tờ tùy thân hợp lệ bạn nhé ^^","598e8108a01e315c3e677b74"
"Vậy bên add vẫn chưa chuyển cho mình đc luôn vào tài khoản atadi đc đungs k","598e8117a01e315c3e677b75"
"Bạn ơi, trường hợp này bạn đã chuyên khoản liên ngân hàng mất 3 tiếng trong thời gian làm việc ngân hàng kịp hoạch toán ATADI mới được tiền của bạn. Tuy nhiên hôm nay là thứ 7 rồi trường hợp xấu nhất có thể ATADI mới nhận được tiền khi đó không kịp xuất vé cho bạn.","598e8127a01e315c3e677b79"
"Tuy nhiên hôm nay là thứ 7 rồi trường hợp xấu nhất có thể sang thứ 2 ATADI mới nhận được tiền khi đó không kịp xuất vé cho bạn.","598e814ea01e315c3e677b7b"
"Mình qua website hãng đạt rồi. Hệ thống mình đang bị trục trắc đv jeatar thì pải","598e816bc79c532227e682fa"
"Thời hạn thanh toán của vé là khi nào vậy ạ? và khi nào bạn bay?","598e8173c79c532227e682fb"
"Jetstar","598e8175c79c532227e682fc"
"Bạn yên tâm là chắc chắn có thể thanh toán tiền mặt tại FPT Shop được bạn nhé","598e8177c79c532227e682fd"
"OK","598e8184a01e315c3e677b7e"
"Rất vui được hỗ trợ bạn, cám ơn bạn đã quan tâm và sử dụng dịch vụ của atadi.vn nhé. Nếu cần hỗ trợ gì thêm bạn cứ inbox cho ad nhé. Chúc bạn 1 ngày vui vẻ","598e81eac79c532227e68302"
"Rất vui được hỗ trợ bạn, cám ơn bạn đã quan tâm và sử dụng dịch vụ của atadi.vn nhé. Nếu cần hỗ trợ gì thêm bạn cứ inbox cho ad nhé. Chúc bạn cuối tuần vui vẻ nè ^^","598e823ba01e315c3e677b83"
"Chào bạn, bạn đã lần bào truy cập web atadi.vn để thao tác đặt vé và nhận được xác nhận giữ chỗ thành công từ ATADI gửi về chưa ạ ? nếu bạn đã từng thao tác thì khi ad tư vấn bạn sẽ dễ hiểu hơn","598e8240a01e315c3e677b85"
"Chào bạn, bạn đã thanh toán và nhận được vé điện tử từ ATADI gửi về chưa ạ ?","598e824ba01e315c3e677b86"
"Cảm ơn nhiều ạ","598e8252a01e315c3e677b87"
"To dat roi","598e8264a01e315c3e677b8a"
"bạn ra ngân hàng Saccombank, Techcombank nhé","598e826ca01e315c3e677b8b"
"Ngày mai là thời hạn thanh toán của mình","598e8278a01e315c3e677b8d"
"rồi em","598e8288c79c532227e6830d"
"Neu o dat ve o ngoai,ko chon san re thi co che do chon tre em hay tre","598e8294c79c532227e6830e"
"Hay em be","598e829ba01e315c3e677b8f"
"mình có gọi bêb tổng đài thì họ có tư vấn là thanh toán bằng hình thức khác","598e829dc79c532227e6830f"
"mã hồ sơ","598e829ec79c532227e68310"
"1913G01635","598e829fa01e315c3e677b90"
"nhung vao san gia re thi minh ko thay","598e82a9a01e315c3e677b91"
"còn khoản này thì khi nào nhận đc thì bên atadi sẽ chuyển trả lại mình sau","598e82b6a01e315c3e677b92"
"ad thấy bạn chưa thao tác đặt vé trên atadi và cũng chưa  hiểu rõ về cách thanh toán, bạn có thể tham khảo tại link sau, bạn bỏ qua cách thanh toán và giao vé tận nhaf giùm ad nha, cách đó hiện ngưng phục vụ ạ","598e82c2c79c532227e68312"
"Thanh toán xong, chờ người giao vé thôi phải ko ạ?.","598e82c3c79c532227e68313"
"Minh thanh toan lau roi","598e82cdc79c532227e68315"
"neu vay neu di cung tre em va tre nho ma van muon san gia re thi sao?","598e82d2c79c532227e68316"
"Cua hang vietjet","598e82d9a01e315c3e677b94"
"mình cần xuất VAT vé máy bay này bạn nhé","598e82f4a01e315c3e677b96"
"ad thấy bạn vẫn chưa hiểu rõ về thông tin vé và cách thức mua loại vé siêu rẻ này, bạn nên tham khảo thông tin vé tại link này trước để nắm rõ tính chất vé","598e8316c79c532227e6831a"
"còn đây là cách tạo TKTT trên ATADI để thao tác mua được vé theo đúng quy định hãng, sau khi TKTT có số dư bạn quay lại  mục đặt vé máy bay để mua vé bạn nha","598e834ac79c532227e6831b"
"minh con thay he thong co vé dấu sao vàng,vé đó chỉ chuyển đúng số tiền đó hay sao?","598e8350c79c532227e6831c"
"Ok shop","598e8367a01e315c3e677b9c"
"mua ve do bang cach nao?","598e837ea01e315c3e677b9d"
"Đến bước cuối cùng thì e k đặt được","598e8388a01e315c3e677b9e"
"Vì e k hiểu nạp tiền thanh toán j đó","598e839bc79c532227e6831e"
"bạn có thể tham khảo thông tin vé và cách thức mua, nếu có thắc mắc gì khác có thể inbox ad để tư vấn rõ hơn cho bạn nha","598e83adc79c532227e6831f"
"alo","598e83d9c79c532227e68320"
"alo","598e8419a01e315c3e677ba1"
"vì tính chất vé giá rẻ hoặc vé cận ngày của hãng của hãng là khó mua, số lượng có hạng, ngừoi truy cập thì nhiều, giá vé dễ biến động hay vì lý do khách quan nào đó mua chưa thành  công, chứ web atadi không có bị trục trặc đâu bạn","598e8445c79c532227e68327"
"bạn có thể cho ad xin Mã TKTT và Mã hồ sơ vé bạn chưa mua thành công để ATADI kiểm tra lỗi cho bạn, và sđt để ATADI liên hệ cho bạn ạ","598e8472a01e315c3e677ba4"
"nếu bạn bạn cũng đã nhận được tư vấn từ nhân viên rồi đó ạ 1 nếu có thắc mắc gì khác có thể inbox để ad hỗ trợ bạn nah","598e849fa01e315c3e677ba5"
"21140","598e84c9c79c532227e6832b"
"giờ bay cũ và giờ bay mới bạn bị đổi cụ thể là  thời gian nào vậy ạ ?","598e84cca01e315c3e677ba7"
"ok bạn","598e84cfa01e315c3e677ba8"
"Mình đã đặt thành công bên web jetstar rồi","598e84f0a01e315c3e677ba9"
"chào bạn, bạn cần hỗ trợ xuất hóa đơn cho vé đúng không ạ ? vé này bạn đã thanh toán và nhận được vé điện tử từ ATADI gửi về chưa  ạ  ?","598e8509a01e315c3e677bac"
"đã thanh toán và nhận đc thông báo từ atadi rồi bạn nhé","598e8531c79c532227e68330"
"Gio bay cu la 15:15","598e8535c79c532227e68331"
"Gio bay moi bi doi xuong 20g","598e854fc79c532227e68332"
"trước hết Ad trả lời từng câu nhé, tại mục săn vé  siêu rẻ bạn vẫn chọn được đối tượng hành khách là ngừoi lớn trẻ em hay em bé như mong muốn, thao tác như ảnh bên dưới","598e85c1a01e315c3e677bbb"
"dạ không ạ","598e85dec79c532227e68340"
"khi bạn nhấp vào mục như ảnh trên sẽ hiện ra mục chọn đổi tượng hành khách như sau","598e8640c79c532227e68344"
"Chào atadi","598e8688c79c532227e68346"
"Cho mình hỏi mình mua vé trên atadi","598e86a8c79c532227e68349"
"Bh muốn đổi tên người bay thủ tục như thế nào","598e86c2c79c532227e6834a"
"câu hỏi thứ hai là cách mưa vé siêu rẻ (đính kèm dấu sao màu vàng) + vé cận ngày (đính kèm đồng hồ 24h) ,
* hãng hàng không có 2 loại vé: 
- vé được giữ chỗ và thanh toán  sau
- vé mua ngay (trừ tiền bán vé ngay)
loại vé bạn đang hỏi là loại vé thứ 2
với  loại vé này hãng sẽ thu tiền trước, sau đó xem xét còn vé còn giá sẽ bán, nên bạn cần có tiền trước để mua ngay vé này . thông tin vé bạn tham khảo  tại link sau","598e8737a01e315c3e677bc5"
"còn đây là cách mua ngay vé này, bạn sẽ tạo TKTT -> Nạp tiền -> có tiền rồi bạn quay lại mcuj đặt vé máy bay để mua vé nhé","598e876cc79c532227e68352"
"vé bạn mua của hãng nào vậy ạ ?","598e878aa01e315c3e677bc6"
"Vietnam airlines nhé","598e879cc79c532227e68353"
"bạn xem giùm ad chuyến bay bạn chọn tại phần giá vé có đính kèm ngôi sao màu vàng hay đồng hồ 24h không ạ ?","598e87b8c79c532227e68356"
"chào bạn, bạn cần ad hỗ trợ gì thêm hả bạn ?","598e87f9c79c532227e68357"
"Có ngôi sao màu vàng","598e8808c79c532227e68358"
"Sau khi ATADI nhận được chính xác số tiền thanh toán trước thời hạn quy định, VÉ ĐIỆN TỬ sẽ được gửi về Email, Zalo và tin nhắn về số điện thoại bạn đăng ký ban đầu.
Bạn có mặt tại sân bay 2 tiếng so với giờ khởi hành, cung cấp MÃ ĐẶT CHỖ cho nhân viên làm thủ tục checkin và kèm theo giấy tờ tùy thân hợp lệ nhé.","598e881ba01e315c3e677bc8"
"Mã hồ sơ bạn mua không thành công là bao nhiêu vậy ạ ?","598e8831a01e315c3e677bcb"
"Bạn cung cấp giúp ad những thông tin sau nhé","598e883cc79c532227e68359"
"vé này bạn nhận được vé điện tử khi nào của hãng nào vậy bạn ?","598e884ea01e315c3e677bcc"
"Cám ơn bạn, mình đã nhận được rồi","598e8859c79c532227e6835b"
"Mã đặt chỗ chuyến bay bạn cần thay đổi thông tin + thời gian bay ban đầu + thời gian bay muốn đổi","598e8861a01e315c3e677bcd"
"Bạn có mặt tại sân bay 2 tiếng so với giờ khởi hành, cung cấp MÃ ĐẶT CHỖ cho nhân viên làm thủ tục checkin và kèm theo giấy tờ tùy thân hợp lệ nhé.","598e8878a01e315c3e677bcf"
"Ok","598e8893c79c532227e6835c"
"vé bạn bị hãng thay đổi thừoi gian bay trên 3 tiếng, bạn có thể dùng đúng sđt đăng ký khi đặt vé liên hệ hãng Vietjet 1900 1886 để hãng hỗ trợ đổi cho bạn chuyến bay khác theo nhu cầu có trong ngày nhé, trường hợp không sắp xếp được chuyến bay khác bạn có thể yêu cầu hãng hoàn hủy vé để bạn nhận lại tiền vé đó ạ","598e88a4a01e315c3e677bd0"
"http://blog.atadi.vn/bi-kip-su-dung-tai-khoan-thanh-toan-cua-atadi/","598e88a6a01e315c3e677bd1"
"bạn tham khảo link trên nhé","598e88afc79c532227e6835d"
"Chào bạn, bạn đã thanh toán và nhận được vé điện tử từ ATADI gửi về chưa ạ ?","598e88b0c79c532227e6835e"
"ad ơi","598e88c0c79c532227e6835f"
"nạp tiền vào tài khoản thanh toán để mau ngya vé này ạ","598e88c1c79c532227e68360"
"bạn có cần ad hỗ trợ gì thêm không ạ ?","598e88c3c79c532227e68361"
"Ko bạn nhé","598e88d5c79c532227e68363"
"anh đang hỏi thủ tục với lệ phí thôi","598e88dfc79c532227e68364"
"cho mình hỏi mình muốn đặt vé khứ hồi hn-sg đi 24/11 về 28/11 , bạn check giá trọn gối cho mình","598e88e2c79c532227e68365"
"để mình book","598e88e6a01e315c3e677bd2"
"vì vé này hãng hãng không hỗ trợ giữ chỗ, nên cần mua ngay, bạn thao tác đúng ad nha :)","598e88eca01e315c3e677bd3"
"mà bên e hỗ trợ lâu với máy móc quá","598e88eea01e315c3e677bd4"
"đây là mã đặt chỗ của a chiều đi","598e88f5a01e315c3e677bd5"
"QAWVUZ","598e88f7a01e315c3e677bd6"
"Chào bạn, bạn đã đặt vé và nhận được xác nhận giữ chỗ thành công từ ATADI gửi về chưa ạ ?","598e88faa01e315c3e677bd7"
":(","598e8905c79c532227e68367"
"mình chưa đặt","598e8907a01e315c3e677bd8"
"đổi ngày thì a nắm được là phí đổi + giá vé chênh rồi","598e890da01e315c3e677bd9"
"giá vé chênh thì a check được","598e8912c79c532227e68368"
"nhưng mình chỉ thấy tổng giá vé 1 chiều","598e8916c79c532227e68369"
"nhưng phí đổi là bao nhiêu","598e8919c79c532227e6836a"
"mình muốn tính tổng 2 chiều giá là bnhieu","598e891fa01e315c3e677bda"
"atadi cần tiếp nhận chính xác thông tin của bạn, để liên hệ với hãng","598e891fc79c532227e6836b"
"nhằm giúp bạn có thông tin đúng thôi ạ","598e892da01e315c3e677bdc"
"Neu ben hang van ko thuc hien chuyen bay khac cho minh va cung ko hoan ve lai cho minh thi minh phai lam sao ha ban?","598e893ba01e315c3e677bdd"
"nhắn từ sáng mà mãi a mới thấy trả lời xong lại off luôn","598e8941a01e315c3e677bde"
"cứ ngồi đợi","598e8946c79c532227e6836d"
"hãng hàng không có 2 loại vé:
- vé được giữ chỗ và thanh toán sau
- vé mua ngay (hãng thu tiền trước sau đó xem xét còn giá còn vé thì mới bán)
vé mua ngay sẽ có đính kèm ngôi sao màu vàng (vé  siêu rẻ) hoặc đồng hồ 24h (vé bay cận ngày)
trường hợp của bạn thuộc loại vé mau ngay, bạn có thể tham khảo thông tin vé này tại link để hiểu rõ hơn bản chất của vé","598e894aa01e315c3e677bdf"
"đây là mã đặt chỗ QAWVUZ","598e8950a01e315c3e677be1"
"Rất vui được hỗ trợ bạn, cám ơn bạn đã quan tâm và sử dụng dịch vụ của atadi.vn nhé. Nếu cần hỗ trợ gì thêm bạn cứ inbox cho ad nhé. Chúc bạn 1 ngày vui vẻ","598e8951c79c532227e6836e"
"ATADI rất xin lỗi bạn vì chậm trễ trong việc phản hồi do lượng khách inbox quá đông bên mình ko kịp xử lý hết tất cả cùng 1 lúc, mong bạn hết sức thông cảm cho ATADI nhé.","598e8956a01e315c3e677be2"
"Thời gian bay ban đầu của bạn là gì?","598e895fc79c532227e6836f"
"anh muốn đổi sang bay ngày 01 hoặc 02/09/2017","598e8965c79c532227e68370"
"Mình thanh toán roiif","598e896aa01e315c3e677be3"
"có mã đặt chỗ thì check được thông tin rồi","598e8971a01e315c3e677be4"
"Dạ. E cảm ơn","598e8979c79c532227e68371"
"Đã nhận vé rồi bạn","598e8987a01e315c3e677be6"
"thông tin hành khách là bảo mật ạ","598e898aa01e315c3e677be7"
"bạn vui lòng cung cấp để ad chuyển sang bộ phận chuyên trách nhằm hỗ trợ bạn tốt hơn nhé","598e89a5a01e315c3e677be8"
"ngay từ bước đầu tiên bạn có chọn khứ hồi ngày đi ngày về như ảnh không ạ ?","598e89aec79c532227e68375"
"có bạn","598e89baa01e315c3e677beb"
"nhưng trên web bắt thanh toán 1 chiều trước rồi ms cho đặt vé về","598e89d9c79c532227e68376"
"đây là lỗi đặt nhiều lần ko thành công","598e8a0ca01e315c3e677bf0"
"chuyến ha nội- hcm","598e8a12c79c532227e68379"
"trường hợp của bạn bị đổi thời gian bay chắc chắn sẽ được hỗ trợ đổi sang chuyến khác trong ngày miễn phí, đó là quyền lợi của bạn, vé bị đổi trên 3 tiếng sẽ được hãng hỗ trợ hoàn nếu có nhu cầu, bạn yên tâm nha, bạn cứ dùng đúng sđt đăng ký khi đặt vé để liên hệ là được ạ","598e8a13a01e315c3e677bf1"
"ad tham khảo","598e8a1aa01e315c3e677bf2"
"bạn tham khảo thông tin nếu cần hỗ trợ gì thêm có thể inbox ad tư vấn cụ thể ạ","598e8a27c79c532227e6837b"
"vé bạn mua hãng nào vậy ạ /","598e8a36c79c532227e6837c"
"Mình mua viêtjet","598e8a4ea01e315c3e677bf4"
"vậy là vé bạn chọn có đính kèm dấu sao màu vàng hay đồng hồ 24h đúng không ạ ?","598e8a52c79c532227e6837e"
"vâng","598e8a83c79c532227e68381"
"ad sẽ chuyển thông tin cho bộ phận tra soát hỗ trợ kiểm tra thông tin vé cho bạn, có thể ca làm việc buổi chiều nhân viên sẽ hỗ trợ cho bạn nha, vì hiện đang giờ nghỉ trưa nên không hỗ trợ ngay được","598e8aa0c79c532227e68383"
"Bạn có 2 cách để đổi tên như sau:
Cách 1:
dùng đúng Số Điện Thoại đăng ký đặt vé gọi về Vietjet: 1900 1886 cung cấp MÃ ĐẶT CHỖ để yêu cầu hãng hỗ trợ và hãng sẽ treo nợ khi ra sân bay bạn thanh toán sau
Liên hệ với hãng tối thiểu 3 tiếng trước giờ bay
Cách 2: 
yêu cầu ATADI hỗ trợ thì bạn cần thanh toán ngay. ATADI thu thêm phí hỗ trợ 33,000đ/người/chặng nhé
Bạn vui lòng cung cấp những thông tin sau, ad sẽ hỗ trợ gửi email cho bạn, bạn chỉ cần xác nhận lại email là được nhé: 
+ MÃ ĐẶT CHỖ
+ Họ tên hành khách cũ trên vé
+ Họ tên hành khách mới cần đổi
+ Email đăng ký khi đặt vé, tên, sđt, người liên hệ
Thao tác qua ATADI tối thiểu 6 tiếng trước giờ bay và trong giờ hành chính","598e8ae1a01e315c3e677bf8"
"Ok e hiểu rồi. Tks ad ạ","598e8b22c79c532227e68386"
"hãng hàng không có 2 loại vé:
- vé được giữ chỗ và thanh toán sau
- vé mua ngay (hãng thu tiền trước sau đó xem xét còn giá còn vé thì mới bán)
=> 2 laoij vé này có cách mua khác nhau nên cần chia thành 2 lần thao tác
vé mua ngay sẽ có đính kèm ngôi sao màu vàng (vé  siêu rẻ) hoặc đồng hồ 24h (vé bay cận ngày)
trường hợp của bạn thuộc loại vé mua ngay, bạn có thể tham khảo thông tin vé này tại link để hiểu rõ hơn bản chất của vé","598e8b2cc79c532227e68387"
"Còn nếu mình muốn mua thêm vé cho bé 1 tuổi thì sao ád","598e8b2d4a37cd0d5bc7df79"
"Mình muốn đổi tên thành tên m và bé nhà m","598e8b4b4a37cd0d5bc7df7d"
"đây là cách tạo TKTT trên ATADI để mua được vé theo đúng quy định hãng là có tiền trước mới mau được vé","598e8b59c79c532227e6838c"
"Sau khi bạn đặt giữ chỗ thành công ATADI sẽ gửi mail xác nhận, trong nội dung mail có: 
+ Tổng số tiền cần thanh toán 
+ Thời hạn thanh toán 
+ Thông tin hành trình bay 
+ Hướng dẫn 4 hình thức thanh toán 
>>>> bạn kiểm tra lại lần nữa các thông tin thât chính xác và tiến hành thanh toán 
Bạn có thể chọn những hình thức thanh toán sau: 
1/ Chuyển khoản cùng hệ thống ngân hàng với ATADI 
2/ Nộp tiền mặt trực tiếp tại ngân hàng 
3/ Thanh toán online nếu bạn có tài khoản ngân hàng và có dịch vụ internetbanking 
4/ Thanh toán bằng thẻ Visa/ thẻ Tín Dụng/ thẻ Mastercard 
5/ Thanh toán tiền mặt tại cửa hàng tiện lợi qua cổng thanh toán Payoo (Bạn có thể đến Viễn Thông A, B'smart, Familymart, Ministop, CircleK, Vinpro, Nguyễn Kim để thanh toán nhé) 
Lưu ý: thanhh toán xong tại cửa hàng tiện lợi TỐI THIỂU 60 phút trước hạn thanh toán của vé, báo với nhân viên cần thanh toán ""hóa đơn thương mại điện tử"" và cung cấp mã thanh toán tiền mặt bắt đầu bằng 888xxxxxx, bạn xem ở email ATADI gửi cho bạn nhé
Sau khi ATADI nhận được chính xác số tiền thanh toán trước thời hạn quy định, VÉ ĐIỆN TỬ sẽ được gửi về Email, Zalo và tin nhắn về số điện thoại bạn đăng ký ban đầu.
Bạn có mặt tại sân bay 2 tiếng so với giờ khởi hành, cung cấp MÃ ĐẶT CHỖ cho nhân viên làm thủ tục checkin và kèm theo giấy tờ tùy thân hợp lệ nhé.","598e8b6fc79c532227e6838e"
"bạn thao khảo cách thức đặt vé của ATADI , có trường hợp nào cần hỗ trợ có thể inbox ad nha","598e8b8dc79c532227e68390"
"mình hiểu rồi","598e8ba9c79c532227e68393"
"thank you bạn nhé","598e8bad4a37cd0d5bc7df81"
"hiện tại bạn có vé của hành khách A cần:
- đổi tên A => tên bạn
- mua thêm vé cho bé 1 tuổi bổ sung vào vé đã đổi sang tên bạn đúng không ạ ?","598e8beac79c532227e68395"
"Đúng rồi ad","598e8bfcc79c532227e68396"
"Vì đổi thời gian bay là quy trình phức tạp nên ATADI có riêng 1 bộ phận chuyên trách để hỗ trợ bạn tốt hơn, bạn có thể cho ad xin email, họ tên, sđt để ad chuyển thông tin cho bộ phận tra cứu, sẽ có nhân viên tiếp nhận và trao đổi với bạn qua email luôn nhé","598e8c174a37cd0d5bc7df85"
"hey yo","598e8c1dc79c532227e68397"
"Chào bạn. Bạn đã thao tác đặt vé trên website atadi.vn chưa?","598e8c204a37cd0d5bc7df87"
"roi","598e8c294a37cd0d5bc7df88"
"vậy là vé bạn vừa mới xuấ VĐT, Bạn vui lòng cung cấp những thông tin sau, ad sẽ hỗ trợ tra soát và gửi email cho bạn, bạn chỉ cần xác nhận lại email là được nhé: 
- MÃ HỒ SƠ cần xuất hóa đơn
- Tên Công Ty
- Mã số thuế
- Địa chỉ đăng ký kinh doanh
- Họ tên + SĐT + địa chỉ người nhận Hóa Đơn
- Email đăng ký khi đặt vé","598e8c29c79c532227e68398"
"Chào bạn. Bạn đã thao tác đặt vé trên website atadi.vn chưa?","598e8c2b4a37cd0d5bc7df89"
"chúc bạn tìm được chuyến bay như ý nhé","598e8c2fc79c532227e68399"
"roi","598e8c32c79c532227e6839a"
"Bạn đã nhận được email/ số điện thoại xác nhận giữ chỗ chưa?","598e8c35c79c532227e6839b"
"roi ad","598e8c3ec79c532227e6839c"
"Bạn đã thực hiện thanh toán vé này chưa?","598e8c40c79c532227e6839d"
"chua thanh toan ad oi","598e8c48c79c532227e6839e"
"Vé có hết hạn thanh toán trước khi thanh toán không ạ?","598e8c4ac79c532227e6839f"
"NGUYEN CANH TUAN. 
tuan.ngcanh@gmail.com
01668182809","598e8c554a37cd0d5bc7df8c"
"hinh nhu ko ạ","598e8c574a37cd0d5bc7df8d"
"Bạn có nhận được vé điện tử chưa?","598e8c594a37cd0d5bc7df8e"
"chưa","598e8c5f4a37cd0d5bc7df8f"
"Bạn có muốn thay đổi thông tin trên vé không?","598e8c624a37cd0d5bc7df90"
"ko","598e8c67c79c532227e683a1"
"Bạn có muốn kiểm tra thông tin trên vé không?","598e8c69c79c532227e683a2"
"ko","598e8c6d4a37cd0d5bc7df91"
"Vâng lần sau tôi sẽ chú ý hơn để không xẩy ra sai sót. Ad chuyển thông tin dùm vì 4 tiếng rồi tôi vẫn chưa nhận được xác nhận đã thanh toán","598e8c92c79c532227e683a7"