"message","id"
"dạ vâng, cần hỗ trợ inbox sau ạ :)","5992ccb09285e4015c5cb0bb"
"ma ho so: 24069Z9174","5992ccb8283560ec5b44d3b3"
"dạ em cám ơn để em tham khảo ạ","5992ccd9283560ec5b44d3b5"
"lỗi 96% không đặt chỗ được","5992ccdb283560ec5b44d3b6"
"hủy cũng không được","5992cce09285e4015c5cb0bd"
"ok","5992ccf39285e4015c5cb0bf"
"Rất vui được hỗ trợ bạn, cám ơn bạn đã quan tâm và sử dụng dịch vụ của atadi.vn nhé. Nếu cần hỗ trợ gì thêm bạn cứ inbox cho ad nhé. Chúc bạn buổi tối vui vẻ","5992ccf6283560ec5b44d3b8"
"Thank you","5992ccf69285e4015c5cb0c0"
"ok","5992ccfb283560ec5b44d3b9"
"Chào bạn. Bạn đã thao tác đặt vé trên website atadi.vn chưa?","5992ccfd9285e4015c5cb0c1"
"rồi","5992cd02283560ec5b44d3ba"
"Bạn đã nhận được email/ số điện thoại xác nhận giữ chỗ chưa?","5992cd049285e4015c5cb0c2"
"chưa","5992cd0b9285e4015c5cb0c3"
"Bạn đã thao tác đặt đến bước cuối cùng là nhập thông tin hành khách và nhấp vào mục đặt chuyến bay chưa?","5992cd0e283560ec5b44d3bb"
"rồi","5992cd11283560ec5b44d3bc"
"Màn hình đang đặt vé thể hiện 100% chưa?","5992cd13283560ec5b44d3bd"
"rồi","5992cd169285e4015c5cb0c4"
"Thời gian bạn đặt giữ chỗ quá 30 phút chưa?","5992cd189285e4015c5cb0c5"
"rồi","5992cd1b283560ec5b44d3be"
"L1","5992cd1e9285e4015c5cb0c6"
"ok","5992cd28283560ec5b44d3c0"
"Thank you","5992cd2b283560ec5b44d3c1"
"ok","5992cd2e283560ec5b44d3c2"
"Chào bạn. Bạn đã thao tác đặt vé trên website atadi.vn chưa?","5992cd31283560ec5b44d3c3"
"chưa","5992cd36283560ec5b44d3c4"
"Bạn có muốn ATADI đặt vé hay không?","5992cd39283560ec5b44d3c5"
"bạn sử dụng vé máy bay điện tử do hệ thống đặt vé atadi.vn gửi về nhé","5992cd3a283560ec5b44d3c6"
"không","5992cd3d9285e4015c5cb0c7"
"Bạn có muốn tự đặt vé qua website atadi.vn không?","5992cd3f283560ec5b44d3c7"
"có","5992cd5b9285e4015c5cb0cb"
"Bạn đã biết cách đặt vé qua website atadi.vn chưa?","5992cd5f9285e4015c5cb0cc"
"tks","5992cd5f9285e4015c5cb0cd"
"rồi","5992cd629285e4015c5cb0ce"
"Bạn vui lòng vào atadi.vn để đặt vé nhé.","5992cd659285e4015c5cb0cf"
"ok","5992cd699285e4015c5cb0d0"
"Xin cảm ơn.","5992cd6d9285e4015c5cb0d1"
"ok","5992cd6f9285e4015c5cb0d2"
"Thank you","5992cd729285e4015c5cb0d3"
"Cho mình hỏi với ad","5992cd9be98024646bedb185"
"Chào bạn, bạn đã đặt vé và nhận được xác nhận giữ chỗ thành công từ ATADI gửi về chưa ạ ?","5992cda09285e4015c5cb0d7"
"Mình book vê chiều h ko đc","5992cda69285e4015c5cb0d8"
"Nó loading miết ko đc","5992cdb3e98024646bedb188"
"Bạn coi hỗ tro với nhe","5992cdbb9285e4015c5cb0da"
"Dạ ad","5992cdbde98024646bedb189"
"Tks","5992cdbde98024646bedb18a"
"Mà chuyển là có chỗ ghi chú à ad??","5992cdca9285e4015c5cb0dc"
"Nếu ko nhập có sao ko?","5992cdd0e98024646bedb18b"
"bạn vui lòng đợi hệ thống load hết 100% nhé. nếu bạn mua thành công thì bạn sẽ nhận được vé điện tử. nếu mua không thành công thì tiền của bạn sẽ được hoàn về TKTT ạ","5992cde19285e4015c5cb0de"
"Mình đã nhận được confirmed rồi nhưng chờ lâu quá nên mình tiện tay book chỗ khác rồi","5992cde8e98024646bedb18d"
"tiếp nào","5992cde99285e4015c5cb0df"
"Chào bạn. Bạn đã thao tác đặt vé trên website atadi.vn chưa?","5992cdece98024646bedb18e"
"Chào bạn, ATADI rất xin lỗi bạn vì vấn đề không nhận hết được tất cả các line hành khách liên hệ được, do lượng khách quá đông nên bên ad ko kịp xử lý hết tất cả cùng 1 lúc, mong bạn hết sức thông cảm cho ATADI nhé.","5992cdf1e98024646bedb18f"
"chưa","5992cdf29285e4015c5cb0e0"
"Sorry Atadi huy giúp mình nhé","5992cdf3e98024646bedb190"
"Bạn có muốn ATADI đặt vé hay không?","5992cdf69285e4015c5cb0e1"
"Bạn gọi số hotline nhe: 1900 63 64 84 hoặc 090 177 9 177 từ 8:00 - 18:00, từ thứ 2 đến thứ 6, từ 8:00 - 17:00 Thứ 7 & Chủ Nhật","5992cdfa9285e4015c5cb0e2"
"không","5992cdfb9285e4015c5cb0e3"
"Bạn có muốn tự đặt vé qua website atadi.vn không?","5992cdfee98024646bedb191"
"không","5992ce06e98024646bedb194"
"Lần sau mình sẽ đặt trước vì đợt này mình book hơi gấp","5992ce099285e4015c5cb0e5"
"Xin cảm ơn.","5992ce0a9285e4015c5cb0e6"
"ok","5992ce11e98024646bedb195"
"Thank you","5992ce14e98024646bedb196"
"check nhanh không ạ?","5992ce8be98024646bedb19d"
"bạn đã thanh toán và nhận được vé điện tử từ ATADI gửi về chưa ạ ?","5992ce9fe98024646bedb19f"
"Dạ rồi ạ","5992ceace98024646bedb1a0"
"dạ vé điện tử đây ạ, bị sai thông tin giới tính ạ","5992ceace98024646bedb1a1"
"bạn ơi vì chất lượng hình ảnh không tốt, bạn vui lòng cung cấp giúp ad lại mã hồ sơ trên hình nhé","5992cebde98024646bedb1a2"
"tiếp tục nào","5992ced1e98024646bedb1a4"
"Chào bạn. Bạn đã thao tác đặt vé trên website atadi.vn chưa?","5992ced49285e4015c5cb0f7"
"chưa","5992ced7e98024646bedb1a5"
"Bạn có muốn ATADI đặt vé hay không?","5992ced99285e4015c5cb0f8"
"không","5992ceeae98024646bedb1a8"
"Bạn có muốn tự đặt vé qua website atadi.vn không?","5992ceed9285e4015c5cb0fd"
"có","5992cef0e98024646bedb1ab"
"Bạn đã biết cách đặt vé qua website atadi.vn chưa?","5992cef2e98024646bedb1ac"
"chưa","5992cef5e98024646bedb1ad"
"Hướng dẫn đặt vé","5992cef79285e4015c5cb0ff"
"ok","5992cefbe98024646bedb1af"
"Thank you","5992cefee98024646bedb1b0"
"ok","5992cf019285e4015c5cb100"
"Chào bạn. Bạn đã thao tác đặt vé trên website atadi.vn chưa?","5992cf049285e4015c5cb101"
"chưa","5992cf089285e4015c5cb102"
"Bạn có muốn ATADI đặt vé hay không?","5992cf0be98024646bedb1b2"
"cho e hoi","5992cf19e98024646bedb1b3"
"e ko the dat 2ve dc ạ","5992cf209285e4015c5cb106"
"hay moi lan mua 1ve ak","5992cf2ae98024646bedb1b6"
"có","5992cf42e98024646bedb1b7"
"ATADI thu thêm phí hỗ trợ đặt vé 27,000đ/1 người/1 chặng bạn nhé.","5992cf449285e4015c5cb108"
"không","5992cf49e98024646bedb1b8"
"Giới thiệu ATADI","5992cf4be98024646bedb1b9"
"ok","5992cf53e98024646bedb1ba"
"Xin cảm ơn.","5992cf55e98024646bedb1bb"
"bạn cần ad hỗ trợ gì vậy ạ?","5992cf63e98024646bedb1bc"
"ok","5992cf649285e4015c5cb10d"
"Thank you","5992cf679285e4015c5cb10e"
"tiếp","5992cf76e98024646bedb1be"
"Chào bạn. Bạn đã thao tác đặt vé trên website atadi.vn chưa?","5992cf789285e4015c5cb10f"
"rồi","5992cfb6e98024646bedb1c6"
"Bạn đã nhận được email/ số điện thoại xác nhận giữ chỗ chưa?","5992cfb99285e4015c5cb113"
"Roi ban a cam.on ban","5992cfc4e98024646bedb1c8"
"Dạ mình đã chuyển chính xác 2.500.689 đ vào tài khoản sacombank. Mình có gọi ngân hàng họ trả lời là đã chuyển thành công. Mã giao dịch thành công là: 10006217. Nếu người nhận chưa nhận đc tiền thì vui lòng gọi ngân hàng sacombank cung cấp mã giao dịch để xác nhận ạ","5992cfea9285e4015c5cb116"
"chưa","5992d046e98024646bedb1d3"
"Bạn đã thao tác đặt đến bước cuối cùng là nhập thông tin hành khách và nhấp vào mục đặt chuyến bay chưa?","5992d0499285e4015c5cb118"
"chưa","5992d04c9285e4015c5cb119"
"Bạn vui lòng đặt lại vé mới giúp mình nhé.","5992d04ee98024646bedb1d4"
"ok","5992d0529285e4015c5cb11a"
"Xin cảm ơn bạn.","5992d0549285e4015c5cb11b"
"Mã đây bạn 20552270G1","5992d0659285e4015c5cb11e"
"ok","5992d068e98024646bedb1d7"
"Thank you","5992d06be98024646bedb1d8"
"tiếp nào","5992d06d9285e4015c5cb11f"
"Chào bạn. Bạn đã thao tác đặt vé trên website atadi.vn chưa?","5992d06f9285e4015c5cb120"
"rồi","5992d074e98024646bedb1d9"
"Bạn đã nhận được email/ số điện thoại xác nhận giữ chỗ chưa?","5992d076e98024646bedb1da"
"ở trên ad thấy bạn có mua vé, vé đó bạn mua thành công chưa ạ","5992d077e98024646bedb1db"
"chưa","5992d07d9285e4015c5cb123"
"Bạn đã thao tác đặt đến bước cuối cùng là nhập thông tin hành khách và nhấp vào mục đặt chuyến bay chưa?","5992d07fe98024646bedb1dc"
"rồi","5992d0d39285e4015c5cb12a"
"Màn hình đang đặt vé thể hiện 100% chưa?","5992d0d6e98024646bedb1e1"
"hiện tại bạn đã mua vé và nhận được vé điện tử từ ATADI gửi về chưa ạ","5992d0db9285e4015c5cb12b"
"Mình muốn đặt vé HN-Nha Trang ngày 17/8 chiều về ngày 19/8 (tìm cho mình giá vé rẻ). Xin cảm ơn","5992d0ee9285e4015c5cb12d"
"chưa","5992d0efe98024646bedb1e5"
"Bạn vui lòng đặt lại vé mới giúp mình nhé.","5992d0f2e98024646bedb1e6"
"ok","5992d0fe9285e4015c5cb12f"
"bạn cứ kiểm tra email và phản hồi sẽ có nhân viên tiếp nhận và hỗ trợ bạn nhé","5992d0fee98024646bedb1e8"
"Xin cảm ơn","5992d101e98024646bedb1e9"
"ok","5992d1069285e4015c5cb130"
"Thank you","5992d1099285e4015c5cb131"
"tiếp","5992d10fe98024646bedb1ee"
"Chào bạn. Bạn đã thao tác đặt vé trên website atadi.vn chưa?","5992d112e98024646bedb1ef"
"rồi","5992d11de98024646bedb1f0"
"Bạn đã nhận được email/ số điện thoại xác nhận giữ chỗ chưa?","5992d11fe98024646bedb1f1"
"rồi","5992d129e98024646bedb1f4"
"Bạn đã thực hiện thanh toán vé này chưa?","5992d12be98024646bedb1f5"
"rồi","5992d12f9285e4015c5cb134"
"Vé có hết hạn thanh toán trước khi thanh toán không ạ?","5992d131e98024646bedb1f7"
"không","5992d136e98024646bedb1f8"
"Bạn có nhận được vé điện tử chưa?","5992d138e98024646bedb1f9"
"e có mail hỗ trợ, để e reply","5992d13ce98024646bedb1fa"
"rồi","5992d13ee98024646bedb1fb"
"Bạn có muốn thay đổi thông tin trên vé không?","5992d1409285e4015c5cb135"
"có","5992d143e98024646bedb1fc"
"Bạn bay của hãng hàng không nào?","5992d1459285e4015c5cb136"
"sao rồi bạn","5992d1509285e4015c5cb137"
"bạn có lấy mã tài nạp tiền đúng không ạ?","5992d16ce98024646bedb1fe"
"nội dung là gì nhỉ?","5992d17ce98024646bedb1ff"
"nãy mình có chụp màn hình đt gửi cho bạn đó","5992d17fe98024646bedb202"
"hệ thống đang tiến hành đặt giữ chỗ nên bạn vui lòng đợi hệ thống load hết 100% nhé. nếu hệ thống báo giữ chỗ không thành công là vì giá vé ban đầu đã hết giá, thì bạn vui lòng thao tác đặt lại vé mới giúp ad nhé","5992d18d9285e4015c5cb13a"
"TOPUP29541","5992d1999285e4015c5cb13b"
"Vì tra cứu thông tin chuyển khoản là quy trình phức tạp nên ATADI có riêng 1 bộ phận chuyên trách để hỗ trợ bạn tốt hơn, bạn có thể cho ad xin email, họ tên, sđt để ad chuyển thông tin cho bộ phận tra cứu, sẽ có nhân viên tiếp nhận và trao đổi với bạn qua email luôn nhé","5992d1a5e98024646bedb203"
"Vietnam Airline","5992d1c1e98024646bedb205"
"Nguyễn Huỳnh Nhật Thụy
Email : nhatthuy1409@gmail.com","5992d1c8e98024646bedb208"
"SĐT : 01279727870","5992d1d19285e4015c5cb140"
"e đã reply mail nhé","5992d1e0e98024646bedb209"
"vậy trong thời gian chờ đợi mình đặt vé khác đc ko, chứ đợi đến khi có phản hồi hết vé khuyến mãi","5992d1f6e98024646bedb20d"
"2 lần đều ko thành công","5992d201e98024646bedb20f"
"Rồi ah","5992d211e98024646bedb210"
"Được nhé","5992d2419285e4015c5cb149"
"ok, bạn tiếp nhận lại rồi báo cho mình sớm nhé","5992d255e98024646bedb212"
"Chào bạn, hiện tại bạn đã đặt vé và nhận được xác nhận giữ chỗ thành công từ ATADI gửi về chưa ạ ?","5992d2c4e98024646bedb21b"
"Chưa ạ..mình đặt nhiều lần và nhiều chặng bay khác nhau mà vẫn k được ạ","5992d308e98024646bedb221"
"335348G750","5992d30f9285e4015c5cb153"
"dat ca ngay giờ mà vẫn chưa dc","5992d3189285e4015c5cb154"
"cứ báo lỗi","5992d31be98024646bedb223"
"ad thấy bạn gửi 2 lần nội dung, lần 1 là 2 Mã đặt chỗ, lần sau 2 mã hồ sơ nữa, vậy bạn cần xuất hóa đơn cho bao nhiêu vé vậy ?","5992d343e98024646bedb224"
"bạn đã thao tác đến bước nào rồi ạ?","5992d3569285e4015c5cb15f"
"ok","5992d38fe98024646bedb22a"
"vna","5992d38fe98024646bedb22b"
"Thank you","5992d3929285e4015c5cb160"
"tiep71","5992d3979285e4015c5cb162"
"Chào bạn. Bạn đã thao tác đặt vé trên website atadi.vn chưa?","5992d39ae98024646bedb22c"
"rồi","5992d39e9285e4015c5cb163"
"Bạn đã nhận được email/ số điện thoại xác nhận giữ chỗ chưa?","5992d3a0e98024646bedb22d"
"rồi","5992d3a29285e4015c5cb164"
"Bạn đã thực hiện thanh toán vé này chưa?","5992d3a5e98024646bedb22e"
"rồi","5992d3a7e98024646bedb22f"
"lần 2 mới là 2 mã hồ sơ","5992d3a99285e4015c5cb165"
"Vé có hết hạn thanh toán trước khi thanh toán không ạ?","5992d3aae98024646bedb231"
"mình đặt nhưng hôm đó có việc ko đi đc","5992d3ae9285e4015c5cb166"
"không","5992d3aee98024646bedb232"
"mình lấy HD lần 2 nhế","5992d3b09285e4015c5cb167"
"Bạn có nhận được vé điện tử chưa?","5992d3b19285e4015c5cb168"
"rồi","5992d3b49285e4015c5cb169"
"Bạn có muốn thay đổi thông tin trên vé không?","5992d3b6e98024646bedb233"
"có","5992d3bae98024646bedb234"
"Bạn bay của hãng hàng không nào?","5992d3bce98024646bedb235"
"bạn vui lòng kiểm tra và xác nhận mail giúp ad nhé","5992d3c09285e4015c5cb16a"
"Vietjet","5992d3c39285e4015c5cb16c"
"Bạn có nhu cầu nào?","5992d3c5e98024646bedb238"
"Đến bước cuối cùng  rồi ạ... nhưng nó đến 100% lại quay về 0% nhiều lần như vậy mà k kết thúc ạ","5992d3cc9285e4015c5cb16e"
"Thay đổi thông tin v...","5992d3cce98024646bedb239"
"Mình nhận đc mail rồi","5992d3d19285e4015c5cb16f"
"Xác nhận thế nào bạn","5992d3d9e98024646bedb23a"
"Mình đặt vé nhiều lần ở trang này rồi nhưng chỉ có ngày hôm nay là k đặt được thôi ạ","5992d3f2e98024646bedb23d"
"Theo quy định các hãng hàng không, không cung cấp trước số ghế bạn nhé. 
Hãng Jetstar có hỗ trợ chọn trước chỗ ngồi có thu phí (mua ghế) hoặc trước giờ bay 24h bạn có thể truy cập vào trang web chính thức của hãng để làm thủ tục checkin online chọn ghế ngồi ( miễn phí). Hoặc khi ra sân bay làm thủ tục hãng sẽ cung cấp số ghế cụ thể ạ.","5992d3fde98024646bedb23f"
"bạn muốn vé siêu khuyến mãi ạ?","5992d41de98024646bedb241"
"ok","5992d4289285e4015c5cb17b"
"ok","5992d42ae98024646bedb242"
"Thank you","5992d42b9285e4015c5cb17c"
"Chào bạn. Bạn đã thao tác đặt vé trên website atadi.vn chưa?","5992d42de98024646bedb243"
"rồi","5992d432e98024646bedb244"
"Bạn đã nhận được email/ số điện thoại xác nhận giữ chỗ chưa?","5992d435e98024646bedb245"
"rồi","5992d440e98024646bedb246"
"Bạn đã thực hiện thanh toán vé này chưa?","5992d4439285e4015c5cb17d"
"ah em có mail rồi","5992d446e98024646bedb249"
"tối đa 2 hành khách nhé","5992d44ae98024646bedb24a"
"có cái mã đặt chỗ đó là xong đúng ko ạ :D","5992d44d9285e4015c5cb17e"
"rồi","5992d44d9285e4015c5cb17f"
"Vé có hết hạn thanh toán trước khi thanh toán không ạ?","5992d450e98024646bedb24b"
"em cảm ơn admin nhìu ạ","5992d451e98024646bedb24c"
"không","5992d455e98024646bedb24d"
"Là trươc 24h bay mình chọn ghế thì sẽ k tốn phí phải ko ạ.","5992d455e98024646bedb24e"
"Bạn có nhận được vé điện tử chưa?","5992d45fe98024646bedb250"
"hiện tại hệ thống trên các hãng hàng không đang bị lỗi nên k đặt giữ chỗ được, bạn vui lòng đợi và đặt lại vé mới nhé.","5992d475e98024646bedb253"
"rồi","5992d47690a933bd73aa2929"
"Bạn có muốn thay đổi thông tin trên vé không?","5992d478e98024646bedb254"
"về việc xuất hóa đơn thì bên ad có riêng 1 bộ phận chuyên trách sẽ hỗ trợ bạn qua email, bạn nhớ check mail phản hồi để được hỗ trợ bạn nhé","5992d479e98024646bedb255"
"có","5992d47ce98024646bedb256"
"Bạn bay của hãng hàng không nào?","5992d47e90a933bd73aa292a"
"Jetstar","5992d480e98024646bedb257"
"Bạn có nhu cầu nào?","5992d483e98024646bedb258"
"Hoàn vé","5992d48590a933bd73aa292b"
"L1","5992d488e98024646bedb259"
"ok tks","5992d48b90a933bd73aa292c"
"ok","5992d490e98024646bedb25a"
"Thank you","5992d49390a933bd73aa292d"
"bạn kiểm tra thông tin, phản hồi lại giúp ad thông tin là chính xác để bên ad tra soát nhé","5992d493e98024646bedb25b"
"ok","5992d49690a933bd73aa292e"
"Đến khi nào có thể đặt được ạ?","5992d497e98024646bedb25c"
"Chào bạn. Bạn đã thao tác đặt vé trên website atadi.vn chưa?","5992d49890a933bd73aa292f"
"rồi","5992d4a190a933bd73aa2931"
"Bạn đã nhận được email/ số điện thoại xác nhận giữ chỗ chưa?","5992d4a390a933bd73aa2932"
"ok, thông tin chính xác rồi bạn","5992d4a6e98024646bedb25f"
"bạn nhận được vé máy bay điện tử rồi đúng không bạn?","5992d4a890a933bd73aa2933"
"rồi","5992d4ad90a933bd73aa2935"
"Bạn đã thực hiện thanh toán vé này chưa?","5992d4afe98024646bedb261"
"rồi","5992d4b390a933bd73aa2937"
"Vé có hết hạn thanh toán trước khi thanh toán không ạ?","5992d4b690a933bd73aa2938"
"Dạ e hỏi tí ạ","5992d4b790a933bd73aa2939"
"không","5992d4b890a933bd73aa293a"
"mình cũng đã phản hồi lại mail đó rồi","5992d4b8e98024646bedb262"
"Bạn có nhận được vé điện tử chưa?","5992d4bb90a933bd73aa293b"
"rồi","5992d4bfe98024646bedb263"
"Bạn có muốn thay đổi thông tin trên vé không?","5992d4c190a933bd73aa293c"
"có","5992d4c690a933bd73aa293d"
"Bạn bay của hãng hàng không nào?","5992d4c8e98024646bedb265"
"Vietnam Airline","5992d4cde98024646bedb266"
"Bạn có nhu cầu nào?","5992d4cf90a933bd73aa293e"
"Thay đổi thông tin v...","5992d4d4e98024646bedb267"
"2 tuổi sẽ được tính là giá vé trẻ em bạn nha","5992d4d7e98024646bedb269"
"ở trên là 21h15, ở dưới là 20h là sao ạ? :|","5992d4d8e98024646bedb26a"
"bên ad đã có bộ phận tiếp nhận, sẽ hỗ trợ và phản hồi qua mail bạn nhé","5992d4ede98024646bedb26c"
"cám ơn bạn","5992d4f990a933bd73aa2940"
"hihi","5992d4fe90a933bd73aa2941"
"bạn đã mua vé thành công rồi ạ","5992d50490a933bd73aa2942"
"đến ngày bay bạn có mặt tại sân bay 2 tiếng so với giờ khởi hành, cung cấp MÃ ĐẶT CHỖ cho nhân viên làm thủ tục checkin và kèm theo giấy tờ tùy thân hợp lệ là được nhé.","5992d51ee98024646bedb26e"
"như đã tư vấn trên ạ, Đối với hãng Jestar, hãng hỗ trợ khách bay bình thường, chỉ cần đúng thông tin trên giấy tờ tùy thân là được bạn nhé
Đối với hãng VN airlines: hành khách  HUỲNH THỊ THÙY LINH  có tên lót là chữ THỊ, nên hãng sẽ phân biệt được đây là hành khách nữ nhé, hãng hỗ trợ bay bình thường ạ","5992d531e98024646bedb26f"
"hệ thống hoàn tiền lại về TKTT là bạn đã mua vé không thành công bạn nhé","5992d53be98024646bedb270"
"nếu bạn chuyển khoản bằng ATM, bạn chuyển đúng số tiền, ko làm tròn, ko chuyển chẳn là đc nhé, nội dung mình không nhập cũng dc ạ","5992d54590a933bd73aa2945"
"Chào bạn, bạn đã đặt vé và nhận được xác nhận giữ chỗ thành công từ ATADI gửi về chưa ạ ?","5992d55b90a933bd73aa2948"
"Ok. Bạn xử lý cái giao dịch đang bị treo bên trên giúp mình nhé","5992d56ee98024646bedb276"
"mình chỉ nhận đc jesstar còn vj thì ko đc b oi","5992d57790a933bd73aa2949"
"đến ngày bay bạn có mặt tại sân bay 2 tiếng so với giờ khởi hành, cung cấp MÃ ĐẶT CHỖ cho nhân viên làm thủ tục checkin và kèm theo giấy tờ tùy thân hợp lệ là được nhé.","5992d57a90a933bd73aa294b"
"Dạ ad!!!  =))","5992d599e98024646bedb27b"
"hiện tại bạn đã kiểm tra số dư ở TKTT của bạn chưa ạ","5992d5c390a933bd73aa2950"
"Dạ đã kiểm tra nhưng số dư vẫn ko thay đổi","5992d5e9e98024646bedb280"
"hiện tại hệ thống đặt vé của các hãng hàng không đang bị lỗi, bạn vui lòng thao tác đặt lại vé nhé.","5992d61990a933bd73aa2953"
"Chào bạn, bạn đã đặt vé và nhận được xác nhận giữ chỗ thành công từ ATADI gửi về chưa ạ ?","5992d626e98024646bedb285"
"Trước tiên ad cũng xin lỗi và rất tiếc vì không hỗ trợ bạn nhanh chóng được bạn nhé :( do lượng inbox bên ad khá nhiều đó ạ. 
Bên cạnh đó, ad cũng rất cảm ơn bạn đã thông cảm giúp ad và ATADI. Hy vọng lần sau bạn vẫn ủng hộ ATADI nha <3","5992d63090a933bd73aa2955"
"Ok cám ơn Atadi đã hỗ trợ mình nhé","5992d65990a933bd73aa2956"
"ok","5992d65d90a933bd73aa2957"
"Thank you","5992d660e98024646bedb28d"
"tiếp nào","5992d662e98024646bedb28e"
"Chào bạn. Bạn đã thao tác đặt vé trên website atadi.vn chưa?","5992d66690a933bd73aa2959"
"rồi","5992d66ee98024646bedb28f"
"hãng VNA có hỗ trợ hoàn vé tùy hạng vé nếu khách ko thực hiện chuyến bay vì lý do cá nhân đó ạ!","5992d67090a933bd73aa295b"
"Bạn đã nhận được email/ số điện thoại xác nhận giữ chỗ chưa?","5992d67190a933bd73aa295c"
"rồi","5992d67690a933bd73aa295d"
"Bạn đã thực hiện thanh toán vé này chưa?","5992d679e98024646bedb290"
"rồi","5992d67ce98024646bedb291"
"hiện tại hệ thống của các hãng hàng không đang bị lỗi, bạn vui lòng đợi và đặt lại vé mới nhé","5992d67ee98024646bedb292"
"Vé có hết hạn thanh toán trước khi thanh toán không ạ?","5992d67fe98024646bedb293"
"không biết bạn có cần hỗ trợ kiểm tra hạng vé và hoàn vé ko ?","5992d688e98024646bedb295"
"Chào bạn, hiện tại bạn đã đặt vé và nhận được xác nhận giữ chỗ thành công từ ATADI gửi về chưa ạ ?","5992d68be98024646bedb296"
"không","5992d68e90a933bd73aa2960"
"Bạn có nhận được vé điện tử chưa?","5992d690e98024646bedb297"
"rồi","5992d69fe98024646bedb298"
"chưa bạn ơi","5992d6a190a933bd73aa2962"
"Bạn có muốn thay đổi thông tin trên vé không?","5992d6a190a933bd73aa2963"
"Ok bạn, mình đang đặt lại. Cảm ơn bạn.","5992d6a690a933bd73aa2964"
"đât từ chiều giờ","5992d6a7e98024646bedb29a"
"cứ báo lỗi","5992d6aae98024646bedb29b"
"có","5992d6c2e98024646bedb29c"
"Bạn bay của hãng hàng không nào?","5992d6c4e98024646bedb29d"
"có nhưng chuyến bay hôm qua rồi","5992d6c890a933bd73aa2967"
"Vietnam Airline","5992d6cce98024646bedb29e"
"Bạn có nhu cầu nào?","5992d6cfe98024646bedb29f"
"Bổ sung dịch vụ thêm","5992d6d190a933bd73aa2968"
"Bạn cần bổ sung dịch vụ nào?","5992d6d390a933bd73aa296a"
"Trẻ em đi cùng","5992d6d790a933bd73aa296e"
"L1","5992d6dae98024646bedb2a3"
"hôm nay mới đi làm về thử hỏi xem vé đó giờ phải làm gì","5992d6e390a933bd73aa2970"
"ok","5992d71be98024646bedb2a7"
"Thank you","5992d71ee98024646bedb2a8"
"hí hí","5992d72290a933bd73aa2977"
"Chào bạn. Bạn đã thao tác đặt vé trên website atadi.vn chưa?","5992d725e98024646bedb2a9"
"bạn ơi, thông tin chuyến BL369 Nha Trang-HCM khởi hành 20h ngày 19/08/2017 mới là mặt vé điện tử chính xác đó bạn nhé","5992d72e90a933bd73aa2978"
"rồi","5992d73790a933bd73aa297e"
"Bạn đã nhận được email/ số điện thoại xác nhận giữ chỗ chưa?","5992d73ae98024646bedb2ab"
"rồi","5992d73de98024646bedb2ad"
"Bạn đã thực hiện thanh toán vé này chưa?","5992d74090a933bd73aa2981"
"ah dạ em cảm ơn admin nhìu ạ","5992d74590a933bd73aa2982"
"rồi","5992d74a90a933bd73aa2985"
"Admin nhiệt tình quá <3","5992d74d90a933bd73aa2987"
"Ok b","5992d74de98024646bedb2b0"
"Vé có hết hạn thanh toán trước khi thanh toán không ạ?","5992d74de98024646bedb2b1"
"Rất vui được hỗ trợ bạn, cám ơn bạn đã quan tâm và sử dụng dịch vụ của atadi.vn nhé. Nếu cần hỗ trợ gì thêm bạn cứ inbox cho ad nhé. Chúc bạn 1 ngày vui vẻ <3","5992d75ae98024646bedb2b6"
"không","5992d768e98024646bedb2b9"
"Bạn có nhận được vé điện tử chưa?","5992d76b90a933bd73aa2991"
"rồi","5992d77a90a933bd73aa2996"
"Bạn có muốn thay đổi thông tin trên vé không?","5992d77d90a933bd73aa2997"
"có","5992d78690a933bd73aa2999"
"Bạn bay của hãng hàng không nào?","5992d78990a933bd73aa299a"
"Vietjet","5992d78de98024646bedb2bf"
"Bạn có nhu cầu nào?","5992d78f90a933bd73aa299b"
"Thay đổi thông tin v...","5992d79690a933bd73aa299d"
"Bạn cần thay đổi thông tin nào?","5992d79990a933bd73aa299e"
"Tách Pax","5992d79d90a933bd73aa29a0"
"L1","5992d79fe98024646bedb2c0"
"Cả ngày đều báo lỗi ad ah","5992d7c190a933bd73aa29a4"
"Rất vui được hỗ trợ bạn, cám ơn bạn đã quan tâm và sử dụng dịch vụ của atadi.vn nhé. Nếu cần hỗ trợ gì thêm bạn cứ inbox cho ad nhé. Chúc bạn 1 ngày vui vẻ","5992d7d4e98024646bedb2c5"
"hiện tại hệ thống các hãng hàng không đang bị lỗi nên bạn vui lòng đợi và đặt thêm vé mới nhé :(","5992d7d590a933bd73aa29aa"
"tks","5992d7e490a933bd73aa29b1"
"oki ad","5992d7fc90a933bd73aa29b6"
"tks","5992d7fd90a933bd73aa29b7"
"ok","5992d81fe98024646bedb2d2"
"Thank you","5992d82190a933bd73aa29b9"
"Ad cho mình hỏitis đc ko","5992d89ae98024646bedb2da"
"Tk của m phải dk bankplus mới thanh toán đc phải ko","5992d8bce98024646bedb2db"
"nếu bạn mới chỉ nhận được mã hồ sơ cho 1 chiều thì đối với chiều ngược lại bạn vui lòng thao tác đặt lại vé chỉ cho chiều đó thôi bạn nhé","5992d8c390a933bd73aa29bf"
"Chào bạn, bạn đã đặt vé và nhận được xác nhận giữ chỗ thành công từ ATADI gửi về chưa ạ ?","5992d8c990a933bd73aa29c0"
"Rất vui được hỗ trợ bạn, cám ơn bạn đã quan tâm và sử dụng dịch vụ của atadi.vn nhé. Nếu cần hỗ trợ gì thêm bạn cứ inbox cho ad nhé. Chúc bạn 1 ngày vui vẻ","5992d8d290a933bd73aa29c1"
"Ko mình hỏi vấn đề khác","5992d8dee98024646bedb2de"
"dạ tk có đăng ký Internet banking bạn nhé","5992d8e990a933bd73aa29c4"
"bạn cần ad hỗ trợ gì vậy ạ?","5992d8f7e98024646bedb2e1"
"Ok","5992d91490a933bd73aa29c6"
"bạn sẽ chọn được ghế ngồi khi làm thủ tục check-in online, cồng check-in online mở 24 tiếng và đóng 4 tiếng trước giờ bay bạn nhé","5992d919e98024646bedb2e5"
"hiện tại hệ thống của các hãng hàng không đang bị lỗi, bạn vui lòng đợi và đặt lại vé mới nhé :(","5992d92290a933bd73aa29cb"
"bạn thông cảm vì hôm nay hệ thống bên ad có quá đông khách hàng vào cùng săn vé do đó tình trạng đặt vé có hơi chậm tí, bạn thông cảm nha","5992d92ce98024646bedb2e7"
"Cho mìn hỏi là, giá 752k và 732k khi mình thanh toán có mất phí thêm ko","5992d960e98024646bedb2e9"
"ad cũng bó tay bạn ơi. bên ad đã liên hệ với hãng hàng không và hãng đang khắc phục ->> đợi chờ là hạnh phúc :v","5992d96ce98024646bedb2ea"
"Hay chỉ thanh toán đúng số tiền đó thôi","5992d9b5e98024646bedb2ee"
"Bạn vui lòng cung cấp thêm thông tin sau để ad hỗ trợ tra soát giao dịch nhé:
- Số tiền chính xác đã thanh toán​​
- Mã TKTT cần nạp
- Thời điểm thanh toán
- Nếu bạn chuyển khoản vui lòng cung cấp: 
​  + C​huyển từ ngân hàng nào qua ngân hàng nào của ATADI 
​  + N​ội dung chuyển khoản nếu có
- tên + email + sđt đăng ký đặt vé","5992d9b5e98024646bedb2f0"
"Số tiền cuối cùng thanh toán là số tiền trả về trong xác nhận đặt chỗ thành côgn nhé","5992d9c790a933bd73aa29d6"
"Ak vậy là số tiền này chưa phải số tiền cuối cùng","5992d9dfe98024646bedb2f3"
"bạn click nhập thông tin hành khách -> đặt vé nhé","5992d9e2e98024646bedb2f4"
"mình vẫn bị lỗi giữ chỗ bạn, vậy là hệ thống vẫn có vấn đề hả bạn?","5992d9f490a933bd73aa29d9"
"Mình chưa đặt nên mình hỏi cho rõ ấy mà","5992d9fae98024646bedb2f5"
"trong 1 số trường hợp, trong quá trình bạn thao tác, giá vé có thể thay đổi, dẫn đến giá bạn xem hiện tại sẽ khác so với giá ghi trong xác nhận đặt chỗ thành công trả về nhé","5992da7de98024646bedb2fb"
":)","5992daa5e98024646bedb2fe"
"Số tiền: 2.500.689 đ
Mã TKTT: 2864
Thời gian thanh toán: 12h48 ngày 15/08/2017
Chuyển từ: Timo powered by VPBank qua ngân hàng SACOMBANK chi nhánh QUAN 12, STK: 060092251279
Nội dung chuyển khoản: TOPUP2864
Thông tin TKTT: Tên: Phạm Như Hiền
Email: phamnhuhien94@gmail.com","5992dac3e98024646bedb304"
"Mình muốn tìm vé HN- Đà Lạt cho 4ng, đi 6/10 về 10/10","5992dacce98024646bedb305"
"Check giúp mình xem có vé rẻ ko nhé","5992dade90a933bd73aa29eb"
"đối vs hãng VNA tùy vào hạng vé sẽ được hỗ trợ hoàn hủy vé bạn nhé. bạn cho ad xin mã đặt chỗ của bạn để tra soát xem có hoàn được không nhé","5992dafa90a933bd73aa29ec"
"hệ thống đặt vé đang bị lỗi ạ, bạn vui lòng đợi sau ít phút và đặt lại nhé","5992dafde98024646bedb306"
"Chào bạn, bạn đã đặt vé và nhận được xác nhận giữ chỗ thành công từ ATADI gửi về chưa ạ ?","5992db08e98024646bedb308"
"Không biết bạn đã truy cập website atadi.vn để tham khảo giá vé chưa ạ ?
Bạn có đang dùng internet vào mạng bằng máy tính hay điện thoại được không để ad hướng dẫn bạn cách xem giá vé và đặt vé luôn nha !","5992db0d90a933bd73aa29ed"
"Ok bạn","5992db1ce98024646bedb309"
"Mình mới đang tìm hiểu thôi chứ chưa đặt vé","5992db33e98024646bedb30c"
"Mình onl = đt","5992db3ee98024646bedb30d"
"Rất vui được hỗ trợ bạn, cám ơn bạn đã quan tâm và sử dụng dịch vụ của atadi.vn nhé. Nếu cần hỗ trợ gì thêm bạn cứ inbox cho ad nhé. Chúc bạn buổi tối vui vẻ","5992db68e98024646bedb310"
"GXBENH","5992db6de98024646bedb311"
"bạn tham khảo giá vé qua link sau giúp ad nhé https://www.atadi.vn/#/airdom/presearch/search_list?route=400-HAN-DLI-20171006-20171010","5992db7e90a933bd73aa29f0"
"kiểm tra dùm","5992db9090a933bd73aa29f1"
"Ok . Mình cảm ơn nhé","5992db95e98024646bedb312"
"ad vừa kiểm tra hạng vé của mã đặt chỗ của bạn là hạng tiết kiệm đặc biệt -> hãng VNA không hỗ trợ hoàn hủy vé này bạn nhé","5992dbe190a933bd73aa29f3"
"thanks ad","5992dc24e98024646bedb31a"
"sđt bạn đăng ký đặt vé ạ","5992dc42e98024646bedb31e"
"01649428756","5992dc5de98024646bedb320"
"Hiện tại chỉ nạp tiền vào TKTT thôi ạ","5992dc6ce98024646bedb322"
"ad đã chuyển thông tin của bạn sang bộ phạn chuyên trách. bạn vui lòng check và phản hồi mail để ATADI tiếp tục hỗ trợ bạn nhé","5992dda9594524dc5bebae80"
"Khi nào thì book giữ chỗ đc vậy ad","5992df61594524dc5bebae8a"
"Khách họ cần book vé","5992df6b90a933bd73aa2a28"
"bên ad đã kiểm tra và vẫn chưa nhận được số tiền của bạn nha. bạn vui lòng liên hệ lại với ngân hàng để được hỗ trợ nhé","5992df72594524dc5bebae8b"
"Với vé được mua tại atadi thì cước hành lý tính ntn ạ? Hành lý miễn cước của mỗi hãng ra sao ạ?","5992df9490a933bd73aa2a29"
"ad cũng bó tay bạn ơi. bên ad đã liên hệ với hãng hàng không và hãng đang khắc phục.","5992df97594524dc5bebae8c"
"Chào bạn, bạn đã đặt vé và nhận được xác nhận giữ chỗ thành công từ ATADI gửi về chưa ạ ?","5992dfa5594524dc5bebae8d"
"rồi ạ","5992dfac90a933bd73aa2a2a"
"bạn đã thanh toán và nhận được vé điện tử từ ATADI gửi về chưa ạ ?","5992dfef90a933bd73aa2a2c"
"Nhờ ad gọi lên tổng đài ngân hàng SACOMBANK cung cấp mã điện thành công: 10006217 để đối chiếu ạ!","5992dff6594524dc5bebae91"
"có luôn r ạ","5992e00c594524dc5bebae96"
"xin chào","5992e1eb90a933bd73aa2a3e"
"Ban oi cho minh hoi Nếu hủy 1 vé khứ hồi của Viêtjet thi phi la bn?","5992e21290a933bd73aa2a42"
"chào bạn","5992e2c5594524dc5bebaeb4"
"mình đặt vé chặng HN - Đống Hới  ngày 29/8 - 31/8/2017. mà sao k đc","5992e2e4594524dc5bebaeb8"
"hum qua lúc đầu tính đi ngày 24-26/8 nhg do lịch thay đổi nên hnay đặt lại mà đặt hoài k đc ...","5992e3062b9028f26e05a316"
"Ad thao tác book vé này giúp mình","5992e3112b9028f26e05a317"
"MS VI THI HUONG
MS NONG THI HANH
MS HOANG THI HANH
MS TRINH THI LIEN
04/09 chuyến 20h20 HN-ĐN
07/09 chuyến 16h35 ĐN-HN
Hãng Vietjet
0982907087
Trungthanh9994@gmail.com","5992e35d2b9028f26e05a319"
"Load mãi từ sáng ko nổi ad ạ","5992e3722b9028f26e05a31a"
"Toàn báo lỗi giữ chỗ","5992e3812b9028f26e05a31b"
"alô","5992e3be2b9028f26e05a31e"
"ad ơi cho mình hỏi với ạ","5992e3cf594524dc5bebaebe"
"mình đặt vé mb rồi ck rồi","5992e3df2b9028f26e05a320"
"h nếu mình đổi ngày mất bn phí ạ","5992e3f7594524dc5bebaec1"
"cách đây khoảng 5 hôm ạ","5992e409594524dc5bebaec4"
"1 tháng nữa mới đi","5992e414594524dc5bebaec6"
"Cám ơn bạn nhé.","5992e4a2594524dc5bebaed3"
"E muốn đk thì phải làm thế nào ạ","5992e82a2b9028f26e05a34f"
"Ad cho em hỏi. Em đặt vé bọ lỗi","5992e92a2b9028f26e05a35b"
"Mà vẫn trừ tiền trong tk atadi của em k hoàn tiền v ạ","5992e93b2b9028f26e05a35e"
"cho mình hỏi mình muốn mua vé máy bay trực tiếp thì làm sao ạ?","5992ee05fcc7208f13ccc2eb"
"atadi có thanh toán tiền mặt ko ạ?","5992ee33fcc7208f13ccc2ec"
"alo","5992ef152b9028f26e05a392"
"em cho anh hỏi","5992ef1afcc7208f13ccc2f3"
"Dạ e cảm ơn nhiều ạ","5992f47cc7aeb7107cf95bf4"
"Cho mình hỏi là giá vé hiện thị trên hệ thống là bao gồm những gì","5992f4c9fcc7208f13ccc335"
"Sao khi thanh toán tiền vé cho atadi mình có phải mất thêm khoản nào khác khi lên máy bay k","5992f525c7aeb7107cf95c03"
"Giá đã bao gồm hành lý chưa","5992f53ac7aeb7107cf95c05"
"Ad cho m hỏi vé máy bay hà nội đi Tp HCM t8 ạ","5992f61bfcc7208f13ccc349"
"Ok thanks bạn nha","5992f65bfcc7208f13ccc34e"
"Mình đã nhận thông tin đặt chỗ sau khi chuyển tiền xong","5992f66bfcc7208f13ccc34f"
"Và thông báo mình đặt ko thành công","5992f7c2fcc7208f13ccc365"
"Ad ơi cho hỏi","5992f90dc7aeb7107cf95c2f"
"Thông báo như thế này thì mình vẫn được đặt chỗ chuyến dad-sgn đúng k","5992f959c7aeb7107cf95c33"
"Mình xem giá vé khoang 2tr trên web atadi nhưng khi đăng ký mua  hoàn tất giá chỉ còn 1.764.697. Vậy có còn khoản tiền nào bù vào ngoài số tiền đã gửi mail k ?","5992f9e6c7aeb7107cf95c3a"
"Tl nhanh giup mình nhé","5992f9fbfcc7208f13ccc380"
"Thks ad","5992f9fefcc7208f13ccc381"
"Bạn ơi cho m hỏi","5992fc11dcdfd1c245188b5c"
"Mình đặt vé SG - Quy Nhơn của VNA","5992fc23dcdfd1c245188b5f"
"Sau đó hệ thống dẫn tới yêu cầu nạp tiền vào TK thanh toán như thế này","5992fc4dc7aeb7107cf95c50"
"Tiếp theo phải làm gì hả bạn","5992fc6fc7aeb7107cf95c53"
"Vì giờ là tối rồi, nếu ko chuyển khoản ngay thì vé có đc giữ hay ko","5992fc86dcdfd1c245188b65"
"ban oi minh muon dat ve","5992fc97c7aeb7107cf95c55"
"cho minh xin lai chi nhanh ngan hang vietcombank duoc khong","5992fca9c7aeb7107cf95c58"
"minh khong tim thay chi nhanh bac sai gon","5992fcb2dcdfd1c245188b68"
"Chán quá từ sáng đến giờ vé nào giữ chỗ cũng bị lỗi","59930005c7aeb7107cf95c86"
"Ad đâu rồi, hỗ trợ mình cái","59930040dcdfd1c245188b94"
"Heo mi","59930047dcdfd1c245188b95"
"ad oi cai su kien mua thu vang cua vnairline","59930273dcdfd1c245188bae"
"sao vao xem ko co ve 300","59930276dcdfd1c245188bb0"
"Hi","599303f2890a69c85574a6e6"
"Minh mun hoi thong tin","59930401890a69c85574a6e7"
"Cho hỏi","59930512dcdfd1c245188bd0"
"Chào anh/Chị","59930605dcdfd1c245188bdb"
"chào bạn","599308a1890a69c85574a712"
"bạn có thể cho mình hỏi một chút đc ko","599308a7890a69c85574a713"
"M ko kịp thanh toán có thể kéo dài hạn thanh toán đến sáng mai giúp m đc ko","59930c846f4ce023666d41a9"
"Mình đã đặt được ad nhé","59930cba6f4ce023666d41ab"
"Mình đã liên hệ. Cảm ơn ad","599310966f4ce023666d41d2"
"Cảm ơn ad :)","59931325b24a504d54be9a64"
"Ad ơi cho mình hỏi, hiện mình chưa có tk bên atadi nên ko thể book vé vnairline giá rẻ đc, v bây giờ mình ck vào sau đó mới book đc đúng ko ạ?","599313a56f4ce023666d41e7"
"HỦY GIÚP MÌNH NHÉ","599313b8b24a504d54be9a66"
"mình đã gửi email yêu cầu hoàn tiền. restart1993@gmail.com","599313ecb24a504d54be9a68"
"E nạp 700k vào tk atadi mà nao vẫn báo 0 đ","599317b4b24a504d54be9a80"
"Nhờ giúp e","599317b8b24a504d54be9a81"
"mình đã gửi yêu cầu hủy đặt chỗ và hoàn tiền,email: phamnhuson.vn@gmail.com","59931c9e45992d6235b28d88"
"Hi atadi","59931e2c45992d6235b28d94"
"Minh da thanh toan xong roi","59931e2fb24a504d54be9aa7"
"nhung khong thay he thong gui file vé đã xuat ve","59931e3ab24a504d54be9aa8"
"kiểm tra dùm minh voi, cam on","59931e4645992d6235b28d95"
"ad ơi","5993203445992d6235b28d99"
"mình có đặt vé khuyến mãi của vna qua atadi","5993204845992d6235b28d9a"
"mình đã top up tiền trong tài khoản và tiến hành đặt","59932056b24a504d54be9ab2"
"trong lúc đặt thì màn hình chỉ hiện ở 96% trong suốt 45 phút nên mình quyết định thoát ra","5993206e45992d6235b28d9b"
"mình vào lại thì thấy tài khoản của mình đã bị trừ tiền nhưng lại ko thấy code vé","5993207bb24a504d54be9ab4"
"ad có thể kiểm tra lại giúp mình được ko?","59932084b24a504d54be9ab5"
"mã tài khoản thanh toán của mình là 97760","5993209245992d6235b28d9c"
"Hi","5993281ec64e068d73f47abb"
"Mình lại gặp vấn đề về nạp tiền như lần trước","5993283870efd3443aff7afb"
"hệ thống update lâu quá","5993283dc64e068d73f47abc"
"các bạn hỗ trợ mình đc k","5993284770efd3443aff7afd"
"bạn ktra giúp mình với ạ","59932b7ac64e068d73f47ac7"
"mình đặt từ tối giờ ko đc","59932b8770efd3443aff7b07"
"sáng mai bạn onl thì rep giúp mình với nhé.","59932bacc64e068d73f47ac8"
"hay mua atadi nhưng lần đầu tiên tự đặt mà ko đc .","59932bc570efd3443aff7b08"
"bạn ktra rồi báo cho mình hén, cảm ơn bạn","59932bda70efd3443aff7b09"
"xin chào","59932f2e70efd3443aff7b0d"
"Mình đặt vé trên atadi khi nó load đến 75% đứng hoài vậy","59932f5770efd3443aff7b0e"
"Giờ sao ạ","59932f5970efd3443aff7b0f"
"Mình book trên web của hãng đc rồi ad ạ","5993322870efd3443aff7b15"
"Hệ thống atadi bị lỗi r","5993324970efd3443aff7b16"
"hi ban","59937102e6b83a796ea5feb9"
"ma so dat cho cua minh la","59937106ecbebee316b090f3"
"50193940","59937107ecbebee316b090f4"
"ban cho minh hoi","5993710be6b83a796ea5feba"
"2 ve may bay nay co the doi lich bay duoc khong","59937115e6b83a796ea5febb"
"neu duoc thi phi thanh toan cua minh la bao nhieu","5993711de6b83a796ea5febc"
"Tên hành khách	Số ghế
TRAN, VAN LIEN
VJ381 - --	
TRAN, THI TUYET NGA
VJ381 - --","59937130ecbebee316b090f5"
"Để mình đăng ký mua lại","5993824359bf431242b739e3"
"Rồi chụp gửi bạn","5993824a59bf431242b739e5"
"Nó cứ bắt mua 2 chiều mới chịu","5993825856f976f67731ab9b"
"Có gì kiểm tra họ e vs","59938c0b59bf431242b739f7"
"Số đt 0966399911","59938c1559bf431242b739f8"
"Dạ cho em hỏi sáng nay hệ thống bị lỗi hay do đường truyền mà em giữ chỗ bị lỗi vậy ạ? Em cảm ơn!","599394a7d9d5555a1f55cc45"
"dấu ngôi sao trên giá vé","5993986b73b6c6d249055a2d"
"bạn giải thích giúp mình ạ","5993987373b6c6d249055a2e"
"giá đó có giữ chỗ. hủy. đổi đc ko","59939882774c3f0351c84101"
"bạn bay hãng nào nhỉ?","59939c95774c3f0351c84114"
"Chào bạn, bạn đã đặt vé và nhận được xác nhận giữ chỗ thành công từ ATADI gửi về chưa ạ ?","59939f5f73b6c6d249055a47"